^C:\USERS\JOSHUA WRIGHT\SCHOOL\COMPUTER PROGRAMMER ANALYST\S4\PATTERNS_IN_SOFTWARE_1\PROJECT_4 _REG\UT_TRIE\UT_TRIE\DEBUG\UT_TRIE_00_MAIN.OBJ|C:\USERS\JOSHUA WRIGHT\SCHOOL\COMPUTER PROGRAMMER ANALYST\S4\PATTERNS_IN_SOFTWARE_1\PROJECT_4 _REG\UT_TRIE\UT_TRIE\DEBUG\UT_TRIE_01_CONCEPT.OBJ|C:\USERS\JOSHUA WRIGHT\SCHOOL\COMPUTER PROGRAMMER ANALYST\S4\PATTERNS_IN_SOFTWARE_1\PROJECT_4 _REG\UT_TRIE\UT_TRIE\DEBUG\UT_TRIE_02_CAPACITY.OBJ|C:\USERS\JOSHUA WRIGHT\SCHOOL\COMPUTER PROGRAMMER ANALYST\S4\PATTERNS_IN_SOFTWARE_1\PROJECT_4 _REG\UT_TRIE\UT_TRIE\DEBUG\UT_TRIE_03_FORWARD_ITER.OBJ|C:\USERS\JOSHUA WRIGHT\SCHOOL\COMPUTER PROGRAMMER ANALYST\S4\PATTERNS_IN_SOFTWARE_1\PROJECT_4 _REG\UT_TRIE\UT_TRIE\DEBUG\UT_TRIE_04_BIDIRECTIONAL_ITER.OBJ|C:\USERS\JOSHUA WRIGHT\SCHOOL\COMPUTER PROGRAMMER ANALYST\S4\PATTERNS_IN_SOFTWARE_1\PROJECT_4 _REG\UT_TRIE\UT_TRIE\DEBUG\UT_TRIE_05_REVERSE_ITER.OBJ|C:\USERS\JOSHUA WRIGHT\SCHOOL\COMPUTER PROGRAMMER ANALYST\S4\PATTERNS_IN_SOFTWARE_1\PROJECT_4 _REG\UT_TRIE\UT_TRIE\DEBUG\UT_TRIE_06_CONST_ITER.OBJ|C:\USERS\JOSHUA WRIGHT\SCHOOL\COMPUTER PROGRAMMER ANALYST\S4\PATTERNS_IN_SOFTWARE_1\PROJECT_4 _REG\UT_TRIE\UT_TRIE\DEBUG\UT_TRIE_07_ERASE_CONCEPT.OBJ
C:\USERS\JOSHUA WRIGHT\SCHOOL\COMPUTER PROGRAMMER ANALYST\S4\PATTERNS_IN_SOFTWARE_1\PROJECT_4 _REG\UT_TRIE\DEBUG\UT_TRIE.ILK
C:\USERS\JOSHUA WRIGHT\SCHOOL\COMPUTER PROGRAMMER ANALYST\S4\PATTERNS_IN_SOFTWARE_1\PROJECT_4 _REG\UT_TRIE\DEBUG\UT_TRIE.EXE
C:\USERS\JOSHUA WRIGHT\SCHOOL\COMPUTER PROGRAMMER ANALYST\S4\PATTERNS_IN_SOFTWARE_1\PROJECT_4 _REG\UT_TRIE\DEBUG\UT_TRIE.PDB
