^C:\USERS\JOSHUA WRIGHT\SCHOOL\COMPUTER PROGRAMMER ANALYST\S4\PATTERNS_IN_SOFTWARE_1\PROJECT_4 _REG\UT_TRIE\UT_TRIE\UT_TRIE_00_MAIN.CPP|C:\USERS\JOSHUA WRIGHT\SCHOOL\COMPUTER PROGRAMMER ANALYST\S4\PATTERNS_IN_SOFTWARE_1\PROJECT_4 _REG\UT_TRIE\UT_TRIE\UT_TRIE_01_CONCEPT.CPP|C:\USERS\JOSHUA WRIGHT\SCHOOL\COMPUTER PROGRAMMER ANALYST\S4\PATTERNS_IN_SOFTWARE_1\PROJECT_4 _REG\UT_TRIE\UT_TRIE\UT_TRIE_02_CAPACITY.CPP|C:\USERS\JOSHUA WRIGHT\SCHOOL\COMPUTER PROGRAMMER ANALYST\S4\PATTERNS_IN_SOFTWARE_1\PROJECT_4 _REG\UT_TRIE\UT_TRIE\UT_TRIE_03_FORWARD_ITER.CPP|C:\USERS\JOSHUA WRIGHT\SCHOOL\COMPUTER PROGRAMMER ANALYST\S4\PATTERNS_IN_SOFTWARE_1\PROJECT_4 _REG\UT_TRIE\UT_TRIE\UT_TRIE_04_BIDIRECTIONAL_ITER.CPP|C:\USERS\JOSHUA WRIGHT\SCHOOL\COMPUTER PROGRAMMER ANALYST\S4\PATTERNS_IN_SOFTWARE_1\PROJECT_4 _REG\UT_TRIE\UT_TRIE\UT_TRIE_05_REVERSE_ITER.CPP|C:\USERS\JOSHUA WRIGHT\SCHOOL\COMPUTER PROGRAMMER ANALYST\S4\PATTERNS_IN_SOFTWARE_1\PROJECT_4 _REG\UT_TRIE\UT_TRIE\UT_TRIE_06_CONST_ITER.CPP|C:\USERS\JOSHUA WRIGHT\SCHOOL\COMPUTER PROGRAMMER ANALYST\S4\PATTERNS_IN_SOFTWARE_1\PROJECT_4 _REG\UT_TRIE\UT_TRIE\UT_TRIE_07_ERASE_CONCEPT.CPP
C:\USERS\JOSHUA WRIGHT\SCHOOL\COMPUTER PROGRAMMER ANALYST\S4\PATTERNS_IN_SOFTWARE_1\PROJECT_4 _REG\UT_TRIE\UT_TRIE\X64\DEBUG\VC141.PDB
C:\USERS\JOSHUA WRIGHT\SCHOOL\COMPUTER PROGRAMMER ANALYST\S4\PATTERNS_IN_SOFTWARE_1\PROJECT_4 _REG\UT_TRIE\UT_TRIE\X64\DEBUG\VC141.IDB
C:\USERS\JOSHUA WRIGHT\SCHOOL\COMPUTER PROGRAMMER ANALYST\S4\PATTERNS_IN_SOFTWARE_1\PROJECT_4 _REG\UT_TRIE\UT_TRIE\X64\DEBUG\UT_TRIE_00_MAIN.OBJ
C:\USERS\JOSHUA WRIGHT\SCHOOL\COMPUTER PROGRAMMER ANALYST\S4\PATTERNS_IN_SOFTWARE_1\PROJECT_4 _REG\UT_TRIE\UT_TRIE\X64\DEBUG\UT_TRIE_02_CAPACITY.OBJ
C:\USERS\JOSHUA WRIGHT\SCHOOL\COMPUTER PROGRAMMER ANALYST\S4\PATTERNS_IN_SOFTWARE_1\PROJECT_4 _REG\UT_TRIE\UT_TRIE\X64\DEBUG\UT_TRIE_03_FORWARD_ITER.OBJ
C:\USERS\JOSHUA WRIGHT\SCHOOL\COMPUTER PROGRAMMER ANALYST\S4\PATTERNS_IN_SOFTWARE_1\PROJECT_4 _REG\UT_TRIE\UT_TRIE\X64\DEBUG\UT_TRIE_01_CONCEPT.OBJ
C:\USERS\JOSHUA WRIGHT\SCHOOL\COMPUTER PROGRAMMER ANALYST\S4\PATTERNS_IN_SOFTWARE_1\PROJECT_4 _REG\UT_TRIE\UT_TRIE\X64\DEBUG\UT_TRIE_04_BIDIRECTIONAL_ITER.OBJ
C:\USERS\JOSHUA WRIGHT\SCHOOL\COMPUTER PROGRAMMER ANALYST\S4\PATTERNS_IN_SOFTWARE_1\PROJECT_4 _REG\UT_TRIE\UT_TRIE\X64\DEBUG\UT_TRIE_05_REVERSE_ITER.OBJ
C:\USERS\JOSHUA WRIGHT\SCHOOL\COMPUTER PROGRAMMER ANALYST\S4\PATTERNS_IN_SOFTWARE_1\PROJECT_4 _REG\UT_TRIE\UT_TRIE\X64\DEBUG\UT_TRIE_06_CONST_ITER.OBJ
C:\USERS\JOSHUA WRIGHT\SCHOOL\COMPUTER PROGRAMMER ANALYST\S4\PATTERNS_IN_SOFTWARE_1\PROJECT_4 _REG\UT_TRIE\UT_TRIE\X64\DEBUG\UT_TRIE_07_ERASE_CONCEPT.OBJ
^C:\USERS\JOSHUA WRIGHT\SCHOOL\COMPUTER PROGRAMMER ANALYST\S4\PATTERNS_IN_SOFTWARE_1\PROJECT_4 _REG\UT_TRIE\UT_TRIE\UT_TRIE_00_MAIN.CPP
C:\USERS\JOSHUA WRIGHT\SCHOOL\COMPUTER PROGRAMMER ANALYST\S4\PATTERNS_IN_SOFTWARE_1\PROJECT_4 _REG\UT_TRIE\UT_TRIE\X64\DEBUG\VC141.PDB
^C:\USERS\JOSHUA WRIGHT\SCHOOL\COMPUTER PROGRAMMER ANALYST\S4\PATTERNS_IN_SOFTWARE_1\PROJECT_4 _REG\UT_TRIE\UT_TRIE\UT_TRIE_01_CONCEPT.CPP
C:\USERS\JOSHUA WRIGHT\SCHOOL\COMPUTER PROGRAMMER ANALYST\S4\PATTERNS_IN_SOFTWARE_1\PROJECT_4 _REG\UT_TRIE\UT_TRIE\X64\DEBUG\VC141.PDB
^C:\USERS\JOSHUA WRIGHT\SCHOOL\COMPUTER PROGRAMMER ANALYST\S4\PATTERNS_IN_SOFTWARE_1\PROJECT_4 _REG\UT_TRIE\UT_TRIE\UT_TRIE_02_CAPACITY.CPP
C:\USERS\JOSHUA WRIGHT\SCHOOL\COMPUTER PROGRAMMER ANALYST\S4\PATTERNS_IN_SOFTWARE_1\PROJECT_4 _REG\UT_TRIE\UT_TRIE\X64\DEBUG\VC141.PDB
^C:\USERS\JOSHUA WRIGHT\SCHOOL\COMPUTER PROGRAMMER ANALYST\S4\PATTERNS_IN_SOFTWARE_1\PROJECT_4 _REG\UT_TRIE\UT_TRIE\UT_TRIE_03_FORWARD_ITER.CPP
C:\USERS\JOSHUA WRIGHT\SCHOOL\COMPUTER PROGRAMMER ANALYST\S4\PATTERNS_IN_SOFTWARE_1\PROJECT_4 _REG\UT_TRIE\UT_TRIE\X64\DEBUG\VC141.PDB
C:\USERS\JOSHUA WRIGHT\SCHOOL\COMPUTER PROGRAMMER ANALYST\S4\PATTERNS_IN_SOFTWARE_1\PROJECT_4 _REG\UT_TRIE\UT_TRIE\X64\DEBUG\VC141.IDB
^C:\USERS\JOSHUA WRIGHT\SCHOOL\COMPUTER PROGRAMMER ANALYST\S4\PATTERNS_IN_SOFTWARE_1\PROJECT_4 _REG\UT_TRIE\UT_TRIE\UT_TRIE_04_BIDIRECTIONAL_ITER.CPP
C:\USERS\JOSHUA WRIGHT\SCHOOL\COMPUTER PROGRAMMER ANALYST\S4\PATTERNS_IN_SOFTWARE_1\PROJECT_4 _REG\UT_TRIE\UT_TRIE\X64\DEBUG\VC141.PDB
^C:\USERS\JOSHUA WRIGHT\SCHOOL\COMPUTER PROGRAMMER ANALYST\S4\PATTERNS_IN_SOFTWARE_1\PROJECT_4 _REG\UT_TRIE\UT_TRIE\UT_TRIE_05_REVERSE_ITER.CPP
C:\USERS\JOSHUA WRIGHT\SCHOOL\COMPUTER PROGRAMMER ANALYST\S4\PATTERNS_IN_SOFTWARE_1\PROJECT_4 _REG\UT_TRIE\UT_TRIE\X64\DEBUG\VC141.PDB
^C:\USERS\JOSHUA WRIGHT\SCHOOL\COMPUTER PROGRAMMER ANALYST\S4\PATTERNS_IN_SOFTWARE_1\PROJECT_4 _REG\UT_TRIE\UT_TRIE\UT_TRIE_06_CONST_ITER.CPP
C:\USERS\JOSHUA WRIGHT\SCHOOL\COMPUTER PROGRAMMER ANALYST\S4\PATTERNS_IN_SOFTWARE_1\PROJECT_4 _REG\UT_TRIE\UT_TRIE\X64\DEBUG\VC141.PDB
^C:\USERS\JOSHUA WRIGHT\SCHOOL\COMPUTER PROGRAMMER ANALYST\S4\PATTERNS_IN_SOFTWARE_1\PROJECT_4 _REG\UT_TRIE\UT_TRIE\UT_TRIE_07_ERASE_CONCEPT.CPP
C:\USERS\JOSHUA WRIGHT\SCHOOL\COMPUTER PROGRAMMER ANALYST\S4\PATTERNS_IN_SOFTWARE_1\PROJECT_4 _REG\UT_TRIE\UT_TRIE\X64\DEBUG\VC141.PDB
C:\USERS\JOSHUA WRIGHT\SCHOOL\COMPUTER PROGRAMMER ANALYST\S4\PATTERNS_IN_SOFTWARE_1\PROJECT_4 _REG\UT_TRIE\UT_TRIE\X64\DEBUG\VC141.IDB
^C:\USERS\JOSHUA WRIGHT\SCHOOL\COMPUTER PROGRAMMER ANALYST\S4\PATTERNS_IN_SOFTWARE_1\PROJECT_4 _REG\UT_TRIE\UT_TRIE\UT_TRIE_00_MAIN.CPP|C:\USERS\JOSHUA WRIGHT\SCHOOL\COMPUTER PROGRAMMER ANALYST\S4\PATTERNS_IN_SOFTWARE_1\PROJECT_4 _REG\UT_TRIE\UT_TRIE\UT_TRIE_07_ERASE_CONCEPT.CPP
C:\USERS\JOSHUA WRIGHT\SCHOOL\COMPUTER PROGRAMMER ANALYST\S4\PATTERNS_IN_SOFTWARE_1\PROJECT_4 _REG\UT_TRIE\UT_TRIE\X64\DEBUG\VC141.PDB
C:\USERS\JOSHUA WRIGHT\SCHOOL\COMPUTER PROGRAMMER ANALYST\S4\PATTERNS_IN_SOFTWARE_1\PROJECT_4 _REG\UT_TRIE\UT_TRIE\X64\DEBUG\VC141.IDB
C:\USERS\JOSHUA WRIGHT\SCHOOL\COMPUTER PROGRAMMER ANALYST\S4\PATTERNS_IN_SOFTWARE_1\PROJECT_4 _REG\UT_TRIE\UT_TRIE\X64\DEBUG\UT_TRIE_00_MAIN.OBJ
C:\USERS\JOSHUA WRIGHT\SCHOOL\COMPUTER PROGRAMMER ANALYST\S4\PATTERNS_IN_SOFTWARE_1\PROJECT_4 _REG\UT_TRIE\UT_TRIE\X64\DEBUG\UT_TRIE_07_ERASE_CONCEPT.OBJ
^C:\USERS\JOSHUA WRIGHT\SCHOOL\COMPUTER PROGRAMMER ANALYST\S4\PATTERNS_IN_SOFTWARE_1\PROJECT_4 _REG\UT_TRIE\UT_TRIE\UT_TRIE_01_CONCEPT.CPP|C:\USERS\JOSHUA WRIGHT\SCHOOL\COMPUTER PROGRAMMER ANALYST\S4\PATTERNS_IN_SOFTWARE_1\PROJECT_4 _REG\UT_TRIE\UT_TRIE\UT_TRIE_02_CAPACITY.CPP|C:\USERS\JOSHUA WRIGHT\SCHOOL\COMPUTER PROGRAMMER ANALYST\S4\PATTERNS_IN_SOFTWARE_1\PROJECT_4 _REG\UT_TRIE\UT_TRIE\UT_TRIE_03_FORWARD_ITER.CPP|C:\USERS\JOSHUA WRIGHT\SCHOOL\COMPUTER PROGRAMMER ANALYST\S4\PATTERNS_IN_SOFTWARE_1\PROJECT_4 _REG\UT_TRIE\UT_TRIE\UT_TRIE_04_BIDIRECTIONAL_ITER.CPP|C:\USERS\JOSHUA WRIGHT\SCHOOL\COMPUTER PROGRAMMER ANALYST\S4\PATTERNS_IN_SOFTWARE_1\PROJECT_4 _REG\UT_TRIE\UT_TRIE\UT_TRIE_05_REVERSE_ITER.CPP|C:\USERS\JOSHUA WRIGHT\SCHOOL\COMPUTER PROGRAMMER ANALYST\S4\PATTERNS_IN_SOFTWARE_1\PROJECT_4 _REG\UT_TRIE\UT_TRIE\UT_TRIE_06_CONST_ITER.CPP|C:\USERS\JOSHUA WRIGHT\SCHOOL\COMPUTER PROGRAMMER ANALYST\S4\PATTERNS_IN_SOFTWARE_1\PROJECT_4 _REG\UT_TRIE\UT_TRIE\UT_TRIE_07_ERASE_CONCEPT.CPP
C:\USERS\JOSHUA WRIGHT\SCHOOL\COMPUTER PROGRAMMER ANALYST\S4\PATTERNS_IN_SOFTWARE_1\PROJECT_4 _REG\UT_TRIE\UT_TRIE\X64\DEBUG\VC141.PDB
C:\USERS\JOSHUA WRIGHT\SCHOOL\COMPUTER PROGRAMMER ANALYST\S4\PATTERNS_IN_SOFTWARE_1\PROJECT_4 _REG\UT_TRIE\UT_TRIE\X64\DEBUG\VC141.IDB
C:\USERS\JOSHUA WRIGHT\SCHOOL\COMPUTER PROGRAMMER ANALYST\S4\PATTERNS_IN_SOFTWARE_1\PROJECT_4 _REG\UT_TRIE\UT_TRIE\X64\DEBUG\UT_TRIE_01_CONCEPT.OBJ
C:\USERS\JOSHUA WRIGHT\SCHOOL\COMPUTER PROGRAMMER ANALYST\S4\PATTERNS_IN_SOFTWARE_1\PROJECT_4 _REG\UT_TRIE\UT_TRIE\X64\DEBUG\UT_TRIE_02_CAPACITY.OBJ
C:\USERS\JOSHUA WRIGHT\SCHOOL\COMPUTER PROGRAMMER ANALYST\S4\PATTERNS_IN_SOFTWARE_1\PROJECT_4 _REG\UT_TRIE\UT_TRIE\X64\DEBUG\UT_TRIE_03_FORWARD_ITER.OBJ
C:\USERS\JOSHUA WRIGHT\SCHOOL\COMPUTER PROGRAMMER ANALYST\S4\PATTERNS_IN_SOFTWARE_1\PROJECT_4 _REG\UT_TRIE\UT_TRIE\X64\DEBUG\UT_TRIE_04_BIDIRECTIONAL_ITER.OBJ
C:\USERS\JOSHUA WRIGHT\SCHOOL\COMPUTER PROGRAMMER ANALYST\S4\PATTERNS_IN_SOFTWARE_1\PROJECT_4 _REG\UT_TRIE\UT_TRIE\X64\DEBUG\UT_TRIE_05_REVERSE_ITER.OBJ
C:\USERS\JOSHUA WRIGHT\SCHOOL\COMPUTER PROGRAMMER ANALYST\S4\PATTERNS_IN_SOFTWARE_1\PROJECT_4 _REG\UT_TRIE\UT_TRIE\X64\DEBUG\UT_TRIE_07_ERASE_CONCEPT.OBJ
^C:\USERS\JOSHUA WRIGHT\SCHOOL\COMPUTER PROGRAMMER ANALYST\S4\PATTERNS_IN_SOFTWARE_1\PROJECT_4 _REG\UT_TRIE\UT_TRIE\UT_TRIE_00_MAIN.CPP|C:\USERS\JOSHUA WRIGHT\SCHOOL\COMPUTER PROGRAMMER ANALYST\S4\PATTERNS_IN_SOFTWARE_1\PROJECT_4 _REG\UT_TRIE\UT_TRIE\UT_TRIE_01_CONCEPT.CPP
C:\USERS\JOSHUA WRIGHT\SCHOOL\COMPUTER PROGRAMMER ANALYST\S4\PATTERNS_IN_SOFTWARE_1\PROJECT_4 _REG\UT_TRIE\UT_TRIE\X64\DEBUG\VC141.PDB
C:\USERS\JOSHUA WRIGHT\SCHOOL\COMPUTER PROGRAMMER ANALYST\S4\PATTERNS_IN_SOFTWARE_1\PROJECT_4 _REG\UT_TRIE\UT_TRIE\X64\DEBUG\VC141.IDB
C:\USERS\JOSHUA WRIGHT\SCHOOL\COMPUTER PROGRAMMER ANALYST\S4\PATTERNS_IN_SOFTWARE_1\PROJECT_4 _REG\UT_TRIE\UT_TRIE\X64\DEBUG\UT_TRIE_00_MAIN.OBJ
C:\USERS\JOSHUA WRIGHT\SCHOOL\COMPUTER PROGRAMMER ANALYST\S4\PATTERNS_IN_SOFTWARE_1\PROJECT_4 _REG\UT_TRIE\UT_TRIE\X64\DEBUG\UT_TRIE_01_CONCEPT.OBJ
^C:\USERS\JOSHUA WRIGHT\SCHOOL\COMPUTER PROGRAMMER ANALYST\S4\PATTERNS_IN_SOFTWARE_1\PROJECT_4 _REG\UT_TRIE\UT_TRIE\UT_TRIE_00_MAIN.CPP|C:\USERS\JOSHUA WRIGHT\SCHOOL\COMPUTER PROGRAMMER ANALYST\S4\PATTERNS_IN_SOFTWARE_1\PROJECT_4 _REG\UT_TRIE\UT_TRIE\UT_TRIE_01_CONCEPT.CPP|C:\USERS\JOSHUA WRIGHT\SCHOOL\COMPUTER PROGRAMMER ANALYST\S4\PATTERNS_IN_SOFTWARE_1\PROJECT_4 _REG\UT_TRIE\UT_TRIE\UT_TRIE_02_CAPACITY.CPP|C:\USERS\JOSHUA WRIGHT\SCHOOL\COMPUTER PROGRAMMER ANALYST\S4\PATTERNS_IN_SOFTWARE_1\PROJECT_4 _REG\UT_TRIE\UT_TRIE\UT_TRIE_03_FORWARD_ITER.CPP|C:\USERS\JOSHUA WRIGHT\SCHOOL\COMPUTER PROGRAMMER ANALYST\S4\PATTERNS_IN_SOFTWARE_1\PROJECT_4 _REG\UT_TRIE\UT_TRIE\UT_TRIE_04_BIDIRECTIONAL_ITER.CPP
C:\USERS\JOSHUA WRIGHT\SCHOOL\COMPUTER PROGRAMMER ANALYST\S4\PATTERNS_IN_SOFTWARE_1\PROJECT_4 _REG\UT_TRIE\UT_TRIE\X64\DEBUG\VC141.PDB
C:\USERS\JOSHUA WRIGHT\SCHOOL\COMPUTER PROGRAMMER ANALYST\S4\PATTERNS_IN_SOFTWARE_1\PROJECT_4 _REG\UT_TRIE\UT_TRIE\X64\DEBUG\VC141.IDB
C:\USERS\JOSHUA WRIGHT\SCHOOL\COMPUTER PROGRAMMER ANALYST\S4\PATTERNS_IN_SOFTWARE_1\PROJECT_4 _REG\UT_TRIE\UT_TRIE\X64\DEBUG\UT_TRIE_00_MAIN.OBJ
C:\USERS\JOSHUA WRIGHT\SCHOOL\COMPUTER PROGRAMMER ANALYST\S4\PATTERNS_IN_SOFTWARE_1\PROJECT_4 _REG\UT_TRIE\UT_TRIE\X64\DEBUG\UT_TRIE_01_CONCEPT.OBJ
C:\USERS\JOSHUA WRIGHT\SCHOOL\COMPUTER PROGRAMMER ANALYST\S4\PATTERNS_IN_SOFTWARE_1\PROJECT_4 _REG\UT_TRIE\UT_TRIE\X64\DEBUG\UT_TRIE_02_CAPACITY.OBJ
C:\USERS\JOSHUA WRIGHT\SCHOOL\COMPUTER PROGRAMMER ANALYST\S4\PATTERNS_IN_SOFTWARE_1\PROJECT_4 _REG\UT_TRIE\UT_TRIE\X64\DEBUG\UT_TRIE_03_FORWARD_ITER.OBJ
C:\USERS\JOSHUA WRIGHT\SCHOOL\COMPUTER PROGRAMMER ANALYST\S4\PATTERNS_IN_SOFTWARE_1\PROJECT_4 _REG\UT_TRIE\UT_TRIE\X64\DEBUG\UT_TRIE_04_BIDIRECTIONAL_ITER.OBJ
^C:\USERS\JOSHUA WRIGHT\SCHOOL\COMPUTER PROGRAMMER ANALYST\S4\PATTERNS_IN_SOFTWARE_1\PROJECT_4 _REG\UT_TRIE\UT_TRIE\UT_TRIE_00_MAIN.CPP|C:\USERS\JOSHUA WRIGHT\SCHOOL\COMPUTER PROGRAMMER ANALYST\S4\PATTERNS_IN_SOFTWARE_1\PROJECT_4 _REG\UT_TRIE\UT_TRIE\UT_TRIE_01_CONCEPT.CPP|C:\USERS\JOSHUA WRIGHT\SCHOOL\COMPUTER PROGRAMMER ANALYST\S4\PATTERNS_IN_SOFTWARE_1\PROJECT_4 _REG\UT_TRIE\UT_TRIE\UT_TRIE_02_CAPACITY.CPP|C:\USERS\JOSHUA WRIGHT\SCHOOL\COMPUTER PROGRAMMER ANALYST\S4\PATTERNS_IN_SOFTWARE_1\PROJECT_4 _REG\UT_TRIE\UT_TRIE\UT_TRIE_03_FORWARD_ITER.CPP
C:\USERS\JOSHUA WRIGHT\SCHOOL\COMPUTER PROGRAMMER ANALYST\S4\PATTERNS_IN_SOFTWARE_1\PROJECT_4 _REG\UT_TRIE\UT_TRIE\X64\DEBUG\VC141.PDB
C:\USERS\JOSHUA WRIGHT\SCHOOL\COMPUTER PROGRAMMER ANALYST\S4\PATTERNS_IN_SOFTWARE_1\PROJECT_4 _REG\UT_TRIE\UT_TRIE\X64\DEBUG\VC141.IDB
C:\USERS\JOSHUA WRIGHT\SCHOOL\COMPUTER PROGRAMMER ANALYST\S4\PATTERNS_IN_SOFTWARE_1\PROJECT_4 _REG\UT_TRIE\UT_TRIE\X64\DEBUG\UT_TRIE_00_MAIN.OBJ
C:\USERS\JOSHUA WRIGHT\SCHOOL\COMPUTER PROGRAMMER ANALYST\S4\PATTERNS_IN_SOFTWARE_1\PROJECT_4 _REG\UT_TRIE\UT_TRIE\X64\DEBUG\UT_TRIE_02_CAPACITY.OBJ
C:\USERS\JOSHUA WRIGHT\SCHOOL\COMPUTER PROGRAMMER ANALYST\S4\PATTERNS_IN_SOFTWARE_1\PROJECT_4 _REG\UT_TRIE\UT_TRIE\X64\DEBUG\UT_TRIE_01_CONCEPT.OBJ
C:\USERS\JOSHUA WRIGHT\SCHOOL\COMPUTER PROGRAMMER ANALYST\S4\PATTERNS_IN_SOFTWARE_1\PROJECT_4 _REG\UT_TRIE\UT_TRIE\X64\DEBUG\UT_TRIE_03_FORWARD_ITER.OBJ
^C:\USERS\JOSHUA WRIGHT\SCHOOL\COMPUTER PROGRAMMER ANALYST\S4\PATTERNS_IN_SOFTWARE_1\PROJECT_4 _REG\UT_TRIE\UT_TRIE\UT_TRIE_00_MAIN.CPP|C:\USERS\JOSHUA WRIGHT\SCHOOL\COMPUTER PROGRAMMER ANALYST\S4\PATTERNS_IN_SOFTWARE_1\PROJECT_4 _REG\UT_TRIE\UT_TRIE\UT_TRIE_03_FORWARD_ITER.CPP|C:\USERS\JOSHUA WRIGHT\SCHOOL\COMPUTER PROGRAMMER ANALYST\S4\PATTERNS_IN_SOFTWARE_1\PROJECT_4 _REG\UT_TRIE\UT_TRIE\UT_TRIE_04_BIDIRECTIONAL_ITER.CPP|C:\USERS\JOSHUA WRIGHT\SCHOOL\COMPUTER PROGRAMMER ANALYST\S4\PATTERNS_IN_SOFTWARE_1\PROJECT_4 _REG\UT_TRIE\UT_TRIE\UT_TRIE_05_REVERSE_ITER.CPP|C:\USERS\JOSHUA WRIGHT\SCHOOL\COMPUTER PROGRAMMER ANALYST\S4\PATTERNS_IN_SOFTWARE_1\PROJECT_4 _REG\UT_TRIE\UT_TRIE\UT_TRIE_07_ERASE_CONCEPT.CPP
C:\USERS\JOSHUA WRIGHT\SCHOOL\COMPUTER PROGRAMMER ANALYST\S4\PATTERNS_IN_SOFTWARE_1\PROJECT_4 _REG\UT_TRIE\UT_TRIE\X64\DEBUG\VC141.PDB
C:\USERS\JOSHUA WRIGHT\SCHOOL\COMPUTER PROGRAMMER ANALYST\S4\PATTERNS_IN_SOFTWARE_1\PROJECT_4 _REG\UT_TRIE\UT_TRIE\X64\DEBUG\VC141.IDB
C:\USERS\JOSHUA WRIGHT\SCHOOL\COMPUTER PROGRAMMER ANALYST\S4\PATTERNS_IN_SOFTWARE_1\PROJECT_4 _REG\UT_TRIE\UT_TRIE\X64\DEBUG\UT_TRIE_00_MAIN.OBJ
C:\USERS\JOSHUA WRIGHT\SCHOOL\COMPUTER PROGRAMMER ANALYST\S4\PATTERNS_IN_SOFTWARE_1\PROJECT_4 _REG\UT_TRIE\UT_TRIE\X64\DEBUG\UT_TRIE_03_FORWARD_ITER.OBJ
C:\USERS\JOSHUA WRIGHT\SCHOOL\COMPUTER PROGRAMMER ANALYST\S4\PATTERNS_IN_SOFTWARE_1\PROJECT_4 _REG\UT_TRIE\UT_TRIE\X64\DEBUG\UT_TRIE_04_BIDIRECTIONAL_ITER.OBJ
C:\USERS\JOSHUA WRIGHT\SCHOOL\COMPUTER PROGRAMMER ANALYST\S4\PATTERNS_IN_SOFTWARE_1\PROJECT_4 _REG\UT_TRIE\UT_TRIE\X64\DEBUG\UT_TRIE_05_REVERSE_ITER.OBJ
C:\USERS\JOSHUA WRIGHT\SCHOOL\COMPUTER PROGRAMMER ANALYST\S4\PATTERNS_IN_SOFTWARE_1\PROJECT_4 _REG\UT_TRIE\UT_TRIE\X64\DEBUG\UT_TRIE_07_ERASE_CONCEPT.OBJ
^C:\USERS\JOSHUA WRIGHT\SCHOOL\COMPUTER PROGRAMMER ANALYST\S4\PATTERNS_IN_SOFTWARE_1\PROJECT_4 _REG\UT_TRIE\UT_TRIE\UT_TRIE_00_MAIN.CPP|C:\USERS\JOSHUA WRIGHT\SCHOOL\COMPUTER PROGRAMMER ANALYST\S4\PATTERNS_IN_SOFTWARE_1\PROJECT_4 _REG\UT_TRIE\UT_TRIE\UT_TRIE_03_FORWARD_ITER.CPP|C:\USERS\JOSHUA WRIGHT\SCHOOL\COMPUTER PROGRAMMER ANALYST\S4\PATTERNS_IN_SOFTWARE_1\PROJECT_4 _REG\UT_TRIE\UT_TRIE\UT_TRIE_04_BIDIRECTIONAL_ITER.CPP|C:\USERS\JOSHUA WRIGHT\SCHOOL\COMPUTER PROGRAMMER ANALYST\S4\PATTERNS_IN_SOFTWARE_1\PROJECT_4 _REG\UT_TRIE\UT_TRIE\UT_TRIE_05_REVERSE_ITER.CPP|C:\USERS\JOSHUA WRIGHT\SCHOOL\COMPUTER PROGRAMMER ANALYST\S4\PATTERNS_IN_SOFTWARE_1\PROJECT_4 _REG\UT_TRIE\UT_TRIE\UT_TRIE_07_ERASE_CONCEPT.CPP|C:\USERS\JOSHUA WRIGHT\SCHOOL\COMPUTER PROGRAMMER ANALYST\S4\PATTERNS_IN_SOFTWARE_1\PROJECT_4 _REG\UT_TRIE\UT_TRIE\UT_TRIE_08_INSERT.CPP
C:\USERS\JOSHUA WRIGHT\SCHOOL\COMPUTER PROGRAMMER ANALYST\S4\PATTERNS_IN_SOFTWARE_1\PROJECT_4 _REG\UT_TRIE\UT_TRIE\X64\DEBUG\VC141.PDB
C:\USERS\JOSHUA WRIGHT\SCHOOL\COMPUTER PROGRAMMER ANALYST\S4\PATTERNS_IN_SOFTWARE_1\PROJECT_4 _REG\UT_TRIE\UT_TRIE\X64\DEBUG\VC141.IDB
C:\USERS\JOSHUA WRIGHT\SCHOOL\COMPUTER PROGRAMMER ANALYST\S4\PATTERNS_IN_SOFTWARE_1\PROJECT_4 _REG\UT_TRIE\UT_TRIE\X64\DEBUG\UT_TRIE_08_INSERT.OBJ
C:\USERS\JOSHUA WRIGHT\SCHOOL\COMPUTER PROGRAMMER ANALYST\S4\PATTERNS_IN_SOFTWARE_1\PROJECT_4 _REG\UT_TRIE\UT_TRIE\X64\DEBUG\UT_TRIE_00_MAIN.OBJ
C:\USERS\JOSHUA WRIGHT\SCHOOL\COMPUTER PROGRAMMER ANALYST\S4\PATTERNS_IN_SOFTWARE_1\PROJECT_4 _REG\UT_TRIE\UT_TRIE\X64\DEBUG\UT_TRIE_03_FORWARD_ITER.OBJ
C:\USERS\JOSHUA WRIGHT\SCHOOL\COMPUTER PROGRAMMER ANALYST\S4\PATTERNS_IN_SOFTWARE_1\PROJECT_4 _REG\UT_TRIE\UT_TRIE\X64\DEBUG\UT_TRIE_04_BIDIRECTIONAL_ITER.OBJ
C:\USERS\JOSHUA WRIGHT\SCHOOL\COMPUTER PROGRAMMER ANALYST\S4\PATTERNS_IN_SOFTWARE_1\PROJECT_4 _REG\UT_TRIE\UT_TRIE\X64\DEBUG\UT_TRIE_05_REVERSE_ITER.OBJ
C:\USERS\JOSHUA WRIGHT\SCHOOL\COMPUTER PROGRAMMER ANALYST\S4\PATTERNS_IN_SOFTWARE_1\PROJECT_4 _REG\UT_TRIE\UT_TRIE\X64\DEBUG\UT_TRIE_07_ERASE_CONCEPT.OBJ
^C:\USERS\JOSHUA WRIGHT\SCHOOL\COMPUTER PROGRAMMER ANALYST\S4\PATTERNS_IN_SOFTWARE_1\PROJECT_4 _REG\UT_TRIE\UT_TRIE\UT_TRIE_08_INSERT.CPP
C:\USERS\JOSHUA WRIGHT\SCHOOL\COMPUTER PROGRAMMER ANALYST\S4\PATTERNS_IN_SOFTWARE_1\PROJECT_4 _REG\UT_TRIE\UT_TRIE\X64\DEBUG\VC141.PDB
C:\USERS\JOSHUA WRIGHT\SCHOOL\COMPUTER PROGRAMMER ANALYST\S4\PATTERNS_IN_SOFTWARE_1\PROJECT_4 _REG\UT_TRIE\UT_TRIE\X64\DEBUG\VC141.IDB
^C:\USERS\JOSHUA WRIGHT\SCHOOL\COMPUTER PROGRAMMER ANALYST\S4\PATTERNS_IN_SOFTWARE_1\PROJECT_4 _REG\UT_TRIE\UT_TRIE\UT_TRIE_00_MAIN.CPP|C:\USERS\JOSHUA WRIGHT\SCHOOL\COMPUTER PROGRAMMER ANALYST\S4\PATTERNS_IN_SOFTWARE_1\PROJECT_4 _REG\UT_TRIE\UT_TRIE\UT_TRIE_03_FORWARD_ITER.CPP|C:\USERS\JOSHUA WRIGHT\SCHOOL\COMPUTER PROGRAMMER ANALYST\S4\PATTERNS_IN_SOFTWARE_1\PROJECT_4 _REG\UT_TRIE\UT_TRIE\UT_TRIE_04_BIDIRECTIONAL_ITER.CPP|C:\USERS\JOSHUA WRIGHT\SCHOOL\COMPUTER PROGRAMMER ANALYST\S4\PATTERNS_IN_SOFTWARE_1\PROJECT_4 _REG\UT_TRIE\UT_TRIE\UT_TRIE_05_REVERSE_ITER.CPP|C:\USERS\JOSHUA WRIGHT\SCHOOL\COMPUTER PROGRAMMER ANALYST\S4\PATTERNS_IN_SOFTWARE_1\PROJECT_4 _REG\UT_TRIE\UT_TRIE\UT_TRIE_08_INSERT.CPP
C:\USERS\JOSHUA WRIGHT\SCHOOL\COMPUTER PROGRAMMER ANALYST\S4\PATTERNS_IN_SOFTWARE_1\PROJECT_4 _REG\UT_TRIE\UT_TRIE\X64\DEBUG\VC141.PDB
C:\USERS\JOSHUA WRIGHT\SCHOOL\COMPUTER PROGRAMMER ANALYST\S4\PATTERNS_IN_SOFTWARE_1\PROJECT_4 _REG\UT_TRIE\UT_TRIE\X64\DEBUG\VC141.IDB
C:\USERS\JOSHUA WRIGHT\SCHOOL\COMPUTER PROGRAMMER ANALYST\S4\PATTERNS_IN_SOFTWARE_1\PROJECT_4 _REG\UT_TRIE\UT_TRIE\X64\DEBUG\UT_TRIE_00_MAIN.OBJ
C:\USERS\JOSHUA WRIGHT\SCHOOL\COMPUTER PROGRAMMER ANALYST\S4\PATTERNS_IN_SOFTWARE_1\PROJECT_4 _REG\UT_TRIE\UT_TRIE\X64\DEBUG\UT_TRIE_03_FORWARD_ITER.OBJ
C:\USERS\JOSHUA WRIGHT\SCHOOL\COMPUTER PROGRAMMER ANALYST\S4\PATTERNS_IN_SOFTWARE_1\PROJECT_4 _REG\UT_TRIE\UT_TRIE\X64\DEBUG\UT_TRIE_04_BIDIRECTIONAL_ITER.OBJ
C:\USERS\JOSHUA WRIGHT\SCHOOL\COMPUTER PROGRAMMER ANALYST\S4\PATTERNS_IN_SOFTWARE_1\PROJECT_4 _REG\UT_TRIE\UT_TRIE\X64\DEBUG\UT_TRIE_05_REVERSE_ITER.OBJ
C:\USERS\JOSHUA WRIGHT\SCHOOL\COMPUTER PROGRAMMER ANALYST\S4\PATTERNS_IN_SOFTWARE_1\PROJECT_4 _REG\UT_TRIE\UT_TRIE\X64\DEBUG\UT_TRIE_08_INSERT.OBJ
^C:\USERS\JOSHUA WRIGHT\SCHOOL\COMPUTER PROGRAMMER ANALYST\S4\PATTERNS_IN_SOFTWARE_1\PROJECT_4 _REG\UT_TRIE\UT_TRIE\UT_TRIE_09_CLEAR.CPP
C:\USERS\JOSHUA WRIGHT\SCHOOL\COMPUTER PROGRAMMER ANALYST\S4\PATTERNS_IN_SOFTWARE_1\PROJECT_4 _REG\UT_TRIE\UT_TRIE\X64\DEBUG\VC141.PDB
C:\USERS\JOSHUA WRIGHT\SCHOOL\COMPUTER PROGRAMMER ANALYST\S4\PATTERNS_IN_SOFTWARE_1\PROJECT_4 _REG\UT_TRIE\UT_TRIE\X64\DEBUG\VC141.IDB
^C:\USERS\JOSHUA WRIGHT\SCHOOL\COMPUTER PROGRAMMER ANALYST\S4\PATTERNS_IN_SOFTWARE_1\PROJECT_4 _REG\UT_TRIE\UT_TRIE\UT_TRIE_00_MAIN.CPP|C:\USERS\JOSHUA WRIGHT\SCHOOL\COMPUTER PROGRAMMER ANALYST\S4\PATTERNS_IN_SOFTWARE_1\PROJECT_4 _REG\UT_TRIE\UT_TRIE\UT_TRIE_03_FORWARD_ITER.CPP|C:\USERS\JOSHUA WRIGHT\SCHOOL\COMPUTER PROGRAMMER ANALYST\S4\PATTERNS_IN_SOFTWARE_1\PROJECT_4 _REG\UT_TRIE\UT_TRIE\UT_TRIE_04_BIDIRECTIONAL_ITER.CPP|C:\USERS\JOSHUA WRIGHT\SCHOOL\COMPUTER PROGRAMMER ANALYST\S4\PATTERNS_IN_SOFTWARE_1\PROJECT_4 _REG\UT_TRIE\UT_TRIE\UT_TRIE_05_REVERSE_ITER.CPP|C:\USERS\JOSHUA WRIGHT\SCHOOL\COMPUTER PROGRAMMER ANALYST\S4\PATTERNS_IN_SOFTWARE_1\PROJECT_4 _REG\UT_TRIE\UT_TRIE\UT_TRIE_08_INSERT.CPP|C:\USERS\JOSHUA WRIGHT\SCHOOL\COMPUTER PROGRAMMER ANALYST\S4\PATTERNS_IN_SOFTWARE_1\PROJECT_4 _REG\UT_TRIE\UT_TRIE\UT_TRIE_09_CLEAR.CPP
C:\USERS\JOSHUA WRIGHT\SCHOOL\COMPUTER PROGRAMMER ANALYST\S4\PATTERNS_IN_SOFTWARE_1\PROJECT_4 _REG\UT_TRIE\UT_TRIE\X64\DEBUG\VC141.PDB
C:\USERS\JOSHUA WRIGHT\SCHOOL\COMPUTER PROGRAMMER ANALYST\S4\PATTERNS_IN_SOFTWARE_1\PROJECT_4 _REG\UT_TRIE\UT_TRIE\X64\DEBUG\VC141.IDB
C:\USERS\JOSHUA WRIGHT\SCHOOL\COMPUTER PROGRAMMER ANALYST\S4\PATTERNS_IN_SOFTWARE_1\PROJECT_4 _REG\UT_TRIE\UT_TRIE\X64\DEBUG\UT_TRIE_00_MAIN.OBJ
C:\USERS\JOSHUA WRIGHT\SCHOOL\COMPUTER PROGRAMMER ANALYST\S4\PATTERNS_IN_SOFTWARE_1\PROJECT_4 _REG\UT_TRIE\UT_TRIE\X64\DEBUG\UT_TRIE_03_FORWARD_ITER.OBJ
C:\USERS\JOSHUA WRIGHT\SCHOOL\COMPUTER PROGRAMMER ANALYST\S4\PATTERNS_IN_SOFTWARE_1\PROJECT_4 _REG\UT_TRIE\UT_TRIE\X64\DEBUG\UT_TRIE_04_BIDIRECTIONAL_ITER.OBJ
C:\USERS\JOSHUA WRIGHT\SCHOOL\COMPUTER PROGRAMMER ANALYST\S4\PATTERNS_IN_SOFTWARE_1\PROJECT_4 _REG\UT_TRIE\UT_TRIE\X64\DEBUG\UT_TRIE_05_REVERSE_ITER.OBJ
C:\USERS\JOSHUA WRIGHT\SCHOOL\COMPUTER PROGRAMMER ANALYST\S4\PATTERNS_IN_SOFTWARE_1\PROJECT_4 _REG\UT_TRIE\UT_TRIE\X64\DEBUG\UT_TRIE_08_INSERT.OBJ
C:\USERS\JOSHUA WRIGHT\SCHOOL\COMPUTER PROGRAMMER ANALYST\S4\PATTERNS_IN_SOFTWARE_1\PROJECT_4 _REG\UT_TRIE\UT_TRIE\X64\DEBUG\UT_TRIE_09_CLEAR.OBJ
^C:\USERS\JOSHUA WRIGHT\SCHOOL\COMPUTER PROGRAMMER ANALYST\S4\PATTERNS_IN_SOFTWARE_1\PROJECT_4 _REG\UT_TRIE\UT_TRIE\UT_TRIE_00_MAIN.CPP|C:\USERS\JOSHUA WRIGHT\SCHOOL\COMPUTER PROGRAMMER ANALYST\S4\PATTERNS_IN_SOFTWARE_1\PROJECT_4 _REG\UT_TRIE\UT_TRIE\UT_TRIE_03_FORWARD_ITER.CPP|C:\USERS\JOSHUA WRIGHT\SCHOOL\COMPUTER PROGRAMMER ANALYST\S4\PATTERNS_IN_SOFTWARE_1\PROJECT_4 _REG\UT_TRIE\UT_TRIE\UT_TRIE_04_BIDIRECTIONAL_ITER.CPP|C:\USERS\JOSHUA WRIGHT\SCHOOL\COMPUTER PROGRAMMER ANALYST\S4\PATTERNS_IN_SOFTWARE_1\PROJECT_4 _REG\UT_TRIE\UT_TRIE\UT_TRIE_05_REVERSE_ITER.CPP|C:\USERS\JOSHUA WRIGHT\SCHOOL\COMPUTER PROGRAMMER ANALYST\S4\PATTERNS_IN_SOFTWARE_1\PROJECT_4 _REG\UT_TRIE\UT_TRIE\UT_TRIE_08_INSERT.CPP|C:\USERS\JOSHUA WRIGHT\SCHOOL\COMPUTER PROGRAMMER ANALYST\S4\PATTERNS_IN_SOFTWARE_1\PROJECT_4 _REG\UT_TRIE\UT_TRIE\UT_TRIE_09_CLEAR.CPP|C:\USERS\JOSHUA WRIGHT\SCHOOL\COMPUTER PROGRAMMER ANALYST\S4\PATTERNS_IN_SOFTWARE_1\PROJECT_4 _REG\UT_TRIE\UT_TRIE\UT_TRIE_10_INSERT_RVALUE.CPP
C:\USERS\JOSHUA WRIGHT\SCHOOL\COMPUTER PROGRAMMER ANALYST\S4\PATTERNS_IN_SOFTWARE_1\PROJECT_4 _REG\UT_TRIE\UT_TRIE\X64\DEBUG\VC141.PDB
C:\USERS\JOSHUA WRIGHT\SCHOOL\COMPUTER PROGRAMMER ANALYST\S4\PATTERNS_IN_SOFTWARE_1\PROJECT_4 _REG\UT_TRIE\UT_TRIE\X64\DEBUG\VC141.IDB
C:\USERS\JOSHUA WRIGHT\SCHOOL\COMPUTER PROGRAMMER ANALYST\S4\PATTERNS_IN_SOFTWARE_1\PROJECT_4 _REG\UT_TRIE\UT_TRIE\X64\DEBUG\UT_TRIE_00_MAIN.OBJ
C:\USERS\JOSHUA WRIGHT\SCHOOL\COMPUTER PROGRAMMER ANALYST\S4\PATTERNS_IN_SOFTWARE_1\PROJECT_4 _REG\UT_TRIE\UT_TRIE\X64\DEBUG\UT_TRIE_03_FORWARD_ITER.OBJ
C:\USERS\JOSHUA WRIGHT\SCHOOL\COMPUTER PROGRAMMER ANALYST\S4\PATTERNS_IN_SOFTWARE_1\PROJECT_4 _REG\UT_TRIE\UT_TRIE\X64\DEBUG\UT_TRIE_04_BIDIRECTIONAL_ITER.OBJ
C:\USERS\JOSHUA WRIGHT\SCHOOL\COMPUTER PROGRAMMER ANALYST\S4\PATTERNS_IN_SOFTWARE_1\PROJECT_4 _REG\UT_TRIE\UT_TRIE\X64\DEBUG\UT_TRIE_05_REVERSE_ITER.OBJ
C:\USERS\JOSHUA WRIGHT\SCHOOL\COMPUTER PROGRAMMER ANALYST\S4\PATTERNS_IN_SOFTWARE_1\PROJECT_4 _REG\UT_TRIE\UT_TRIE\X64\DEBUG\UT_TRIE_08_INSERT.OBJ
C:\USERS\JOSHUA WRIGHT\SCHOOL\COMPUTER PROGRAMMER ANALYST\S4\PATTERNS_IN_SOFTWARE_1\PROJECT_4 _REG\UT_TRIE\UT_TRIE\X64\DEBUG\UT_TRIE_09_CLEAR.OBJ
C:\USERS\JOSHUA WRIGHT\SCHOOL\COMPUTER PROGRAMMER ANALYST\S4\PATTERNS_IN_SOFTWARE_1\PROJECT_4 _REG\UT_TRIE\UT_TRIE\X64\DEBUG\UT_TRIE_10_INSERT_RVALUE.OBJ
^C:\USERS\JOSHUA WRIGHT\SCHOOL\COMPUTER PROGRAMMER ANALYST\S4\PATTERNS_IN_SOFTWARE_1\PROJECT_4 _REG\UT_TRIE\UT_TRIE\UT_TRIE_10_INSERT_RVALUE.CPP
C:\USERS\JOSHUA WRIGHT\SCHOOL\COMPUTER PROGRAMMER ANALYST\S4\PATTERNS_IN_SOFTWARE_1\PROJECT_4 _REG\UT_TRIE\UT_TRIE\X64\DEBUG\VC141.PDB
^C:\USERS\JOSHUA WRIGHT\SCHOOL\COMPUTER PROGRAMMER ANALYST\S4\PATTERNS_IN_SOFTWARE_1\PROJECT_4 _REG\UT_TRIE\UT_TRIE\UT_TRIE_00_MAIN.CPP|C:\USERS\JOSHUA WRIGHT\SCHOOL\COMPUTER PROGRAMMER ANALYST\S4\PATTERNS_IN_SOFTWARE_1\PROJECT_4 _REG\UT_TRIE\UT_TRIE\UT_TRIE_01_CONCEPT.CPP|C:\USERS\JOSHUA WRIGHT\SCHOOL\COMPUTER PROGRAMMER ANALYST\S4\PATTERNS_IN_SOFTWARE_1\PROJECT_4 _REG\UT_TRIE\UT_TRIE\UT_TRIE_02_CAPACITY.CPP|C:\USERS\JOSHUA WRIGHT\SCHOOL\COMPUTER PROGRAMMER ANALYST\S4\PATTERNS_IN_SOFTWARE_1\PROJECT_4 _REG\UT_TRIE\UT_TRIE\UT_TRIE_03_FORWARD_ITER.CPP|C:\USERS\JOSHUA WRIGHT\SCHOOL\COMPUTER PROGRAMMER ANALYST\S4\PATTERNS_IN_SOFTWARE_1\PROJECT_4 _REG\UT_TRIE\UT_TRIE\UT_TRIE_04_BIDIRECTIONAL_ITER.CPP|C:\USERS\JOSHUA WRIGHT\SCHOOL\COMPUTER PROGRAMMER ANALYST\S4\PATTERNS_IN_SOFTWARE_1\PROJECT_4 _REG\UT_TRIE\UT_TRIE\UT_TRIE_05_REVERSE_ITER.CPP|C:\USERS\JOSHUA WRIGHT\SCHOOL\COMPUTER PROGRAMMER ANALYST\S4\PATTERNS_IN_SOFTWARE_1\PROJECT_4 _REG\UT_TRIE\UT_TRIE\UT_TRIE_06_CONST_ITER.CPP|C:\USERS\JOSHUA WRIGHT\SCHOOL\COMPUTER PROGRAMMER ANALYST\S4\PATTERNS_IN_SOFTWARE_1\PROJECT_4 _REG\UT_TRIE\UT_TRIE\UT_TRIE_07_ERASE_CONCEPT.CPP|C:\USERS\JOSHUA WRIGHT\SCHOOL\COMPUTER PROGRAMMER ANALYST\S4\PATTERNS_IN_SOFTWARE_1\PROJECT_4 _REG\UT_TRIE\UT_TRIE\UT_TRIE_08_INSERT.CPP|C:\USERS\JOSHUA WRIGHT\SCHOOL\COMPUTER PROGRAMMER ANALYST\S4\PATTERNS_IN_SOFTWARE_1\PROJECT_4 _REG\UT_TRIE\UT_TRIE\UT_TRIE_09_CLEAR.CPP|C:\USERS\JOSHUA WRIGHT\SCHOOL\COMPUTER PROGRAMMER ANALYST\S4\PATTERNS_IN_SOFTWARE_1\PROJECT_4 _REG\UT_TRIE\UT_TRIE\UT_TRIE_10_INSERT_RVALUE.CPP
C:\USERS\JOSHUA WRIGHT\SCHOOL\COMPUTER PROGRAMMER ANALYST\S4\PATTERNS_IN_SOFTWARE_1\PROJECT_4 _REG\UT_TRIE\UT_TRIE\X64\DEBUG\VC141.PDB
C:\USERS\JOSHUA WRIGHT\SCHOOL\COMPUTER PROGRAMMER ANALYST\S4\PATTERNS_IN_SOFTWARE_1\PROJECT_4 _REG\UT_TRIE\UT_TRIE\X64\DEBUG\VC141.IDB
C:\USERS\JOSHUA WRIGHT\SCHOOL\COMPUTER PROGRAMMER ANALYST\S4\PATTERNS_IN_SOFTWARE_1\PROJECT_4 _REG\UT_TRIE\UT_TRIE\X64\DEBUG\UT_TRIE_00_MAIN.OBJ
C:\USERS\JOSHUA WRIGHT\SCHOOL\COMPUTER PROGRAMMER ANALYST\S4\PATTERNS_IN_SOFTWARE_1\PROJECT_4 _REG\UT_TRIE\UT_TRIE\X64\DEBUG\UT_TRIE_01_CONCEPT.OBJ
C:\USERS\JOSHUA WRIGHT\SCHOOL\COMPUTER PROGRAMMER ANALYST\S4\PATTERNS_IN_SOFTWARE_1\PROJECT_4 _REG\UT_TRIE\UT_TRIE\X64\DEBUG\UT_TRIE_02_CAPACITY.OBJ
C:\USERS\JOSHUA WRIGHT\SCHOOL\COMPUTER PROGRAMMER ANALYST\S4\PATTERNS_IN_SOFTWARE_1\PROJECT_4 _REG\UT_TRIE\UT_TRIE\X64\DEBUG\UT_TRIE_03_FORWARD_ITER.OBJ
C:\USERS\JOSHUA WRIGHT\SCHOOL\COMPUTER PROGRAMMER ANALYST\S4\PATTERNS_IN_SOFTWARE_1\PROJECT_4 _REG\UT_TRIE\UT_TRIE\X64\DEBUG\UT_TRIE_04_BIDIRECTIONAL_ITER.OBJ
C:\USERS\JOSHUA WRIGHT\SCHOOL\COMPUTER PROGRAMMER ANALYST\S4\PATTERNS_IN_SOFTWARE_1\PROJECT_4 _REG\UT_TRIE\UT_TRIE\X64\DEBUG\UT_TRIE_05_REVERSE_ITER.OBJ
C:\USERS\JOSHUA WRIGHT\SCHOOL\COMPUTER PROGRAMMER ANALYST\S4\PATTERNS_IN_SOFTWARE_1\PROJECT_4 _REG\UT_TRIE\UT_TRIE\X64\DEBUG\UT_TRIE_06_CONST_ITER.OBJ
C:\USERS\JOSHUA WRIGHT\SCHOOL\COMPUTER PROGRAMMER ANALYST\S4\PATTERNS_IN_SOFTWARE_1\PROJECT_4 _REG\UT_TRIE\UT_TRIE\X64\DEBUG\UT_TRIE_07_ERASE_CONCEPT.OBJ
C:\USERS\JOSHUA WRIGHT\SCHOOL\COMPUTER PROGRAMMER ANALYST\S4\PATTERNS_IN_SOFTWARE_1\PROJECT_4 _REG\UT_TRIE\UT_TRIE\X64\DEBUG\UT_TRIE_08_INSERT.OBJ
C:\USERS\JOSHUA WRIGHT\SCHOOL\COMPUTER PROGRAMMER ANALYST\S4\PATTERNS_IN_SOFTWARE_1\PROJECT_4 _REG\UT_TRIE\UT_TRIE\X64\DEBUG\UT_TRIE_09_CLEAR.OBJ
C:\USERS\JOSHUA WRIGHT\SCHOOL\COMPUTER PROGRAMMER ANALYST\S4\PATTERNS_IN_SOFTWARE_1\PROJECT_4 _REG\UT_TRIE\UT_TRIE\X64\DEBUG\UT_TRIE_10_INSERT_RVALUE.OBJ
^C:\USERS\JOSHUA WRIGHT\SCHOOL\COMPUTER PROGRAMMER ANALYST\S4\PATTERNS_IN_SOFTWARE_1\PROJECT_4 _REG\UT_TRIE\UT_TRIE\UT_TRIE_00_MAIN.CPP|C:\USERS\JOSHUA WRIGHT\SCHOOL\COMPUTER PROGRAMMER ANALYST\S4\PATTERNS_IN_SOFTWARE_1\PROJECT_4 _REG\UT_TRIE\UT_TRIE\UT_TRIE_08_INSERT.CPP|C:\USERS\JOSHUA WRIGHT\SCHOOL\COMPUTER PROGRAMMER ANALYST\S4\PATTERNS_IN_SOFTWARE_1\PROJECT_4 _REG\UT_TRIE\UT_TRIE\UT_TRIE_10_INSERT_RVALUE.CPP
C:\USERS\JOSHUA WRIGHT\SCHOOL\COMPUTER PROGRAMMER ANALYST\S4\PATTERNS_IN_SOFTWARE_1\PROJECT_4 _REG\UT_TRIE\UT_TRIE\X64\DEBUG\VC141.PDB
C:\USERS\JOSHUA WRIGHT\SCHOOL\COMPUTER PROGRAMMER ANALYST\S4\PATTERNS_IN_SOFTWARE_1\PROJECT_4 _REG\UT_TRIE\UT_TRIE\X64\DEBUG\VC141.IDB
C:\USERS\JOSHUA WRIGHT\SCHOOL\COMPUTER PROGRAMMER ANALYST\S4\PATTERNS_IN_SOFTWARE_1\PROJECT_4 _REG\UT_TRIE\UT_TRIE\X64\DEBUG\UT_TRIE_00_MAIN.OBJ
C:\USERS\JOSHUA WRIGHT\SCHOOL\COMPUTER PROGRAMMER ANALYST\S4\PATTERNS_IN_SOFTWARE_1\PROJECT_4 _REG\UT_TRIE\UT_TRIE\X64\DEBUG\UT_TRIE_08_INSERT.OBJ
C:\USERS\JOSHUA WRIGHT\SCHOOL\COMPUTER PROGRAMMER ANALYST\S4\PATTERNS_IN_SOFTWARE_1\PROJECT_4 _REG\UT_TRIE\UT_TRIE\X64\DEBUG\UT_TRIE_10_INSERT_RVALUE.OBJ
^C:\USERS\JOSHUA WRIGHT\SCHOOL\COMPUTER PROGRAMMER ANALYST\S4\PATTERNS_IN_SOFTWARE_1\PROJECT_4 _REG\UT_TRIE\UT_TRIE\UT_TRIE_00_MAIN.CPP|C:\USERS\JOSHUA WRIGHT\SCHOOL\COMPUTER PROGRAMMER ANALYST\S4\PATTERNS_IN_SOFTWARE_1\PROJECT_4 _REG\UT_TRIE\UT_TRIE\UT_TRIE_08_INSERT.CPP|C:\USERS\JOSHUA WRIGHT\SCHOOL\COMPUTER PROGRAMMER ANALYST\S4\PATTERNS_IN_SOFTWARE_1\PROJECT_4 _REG\UT_TRIE\UT_TRIE\UT_TRIE_10_INSERT_RVALUE.CPP|C:\USERS\JOSHUA WRIGHT\SCHOOL\COMPUTER PROGRAMMER ANALYST\S4\PATTERNS_IN_SOFTWARE_1\PROJECT_4 _REG\UT_TRIE\UT_TRIE\UT_TRIE_11_INSERT_RANGE.CPP
C:\USERS\JOSHUA WRIGHT\SCHOOL\COMPUTER PROGRAMMER ANALYST\S4\PATTERNS_IN_SOFTWARE_1\PROJECT_4 _REG\UT_TRIE\UT_TRIE\X64\DEBUG\VC141.PDB
C:\USERS\JOSHUA WRIGHT\SCHOOL\COMPUTER PROGRAMMER ANALYST\S4\PATTERNS_IN_SOFTWARE_1\PROJECT_4 _REG\UT_TRIE\UT_TRIE\X64\DEBUG\VC141.IDB
C:\USERS\JOSHUA WRIGHT\SCHOOL\COMPUTER PROGRAMMER ANALYST\S4\PATTERNS_IN_SOFTWARE_1\PROJECT_4 _REG\UT_TRIE\UT_TRIE\X64\DEBUG\UT_TRIE_00_MAIN.OBJ
C:\USERS\JOSHUA WRIGHT\SCHOOL\COMPUTER PROGRAMMER ANALYST\S4\PATTERNS_IN_SOFTWARE_1\PROJECT_4 _REG\UT_TRIE\UT_TRIE\X64\DEBUG\UT_TRIE_08_INSERT.OBJ
C:\USERS\JOSHUA WRIGHT\SCHOOL\COMPUTER PROGRAMMER ANALYST\S4\PATTERNS_IN_SOFTWARE_1\PROJECT_4 _REG\UT_TRIE\UT_TRIE\X64\DEBUG\UT_TRIE_11_INSERT_RANGE.OBJ
C:\USERS\JOSHUA WRIGHT\SCHOOL\COMPUTER PROGRAMMER ANALYST\S4\PATTERNS_IN_SOFTWARE_1\PROJECT_4 _REG\UT_TRIE\UT_TRIE\X64\DEBUG\UT_TRIE_10_INSERT_RVALUE.OBJ
^C:\USERS\JOSHUA WRIGHT\SCHOOL\COMPUTER PROGRAMMER ANALYST\S4\PATTERNS_IN_SOFTWARE_1\PROJECT_4 _REG\UT_TRIE\UT_TRIE\UT_TRIE_11_INSERT_RANGE.CPP
C:\USERS\JOSHUA WRIGHT\SCHOOL\COMPUTER PROGRAMMER ANALYST\S4\PATTERNS_IN_SOFTWARE_1\PROJECT_4 _REG\UT_TRIE\UT_TRIE\X64\DEBUG\VC141.PDB
^C:\USERS\JOSHUA WRIGHT\SCHOOL\COMPUTER PROGRAMMER ANALYST\S4\PATTERNS_IN_SOFTWARE_1\PROJECT_4 _REG\UT_TRIE\UT_TRIE\UT_TRIE_00_MAIN.CPP|C:\USERS\JOSHUA WRIGHT\SCHOOL\COMPUTER PROGRAMMER ANALYST\S4\PATTERNS_IN_SOFTWARE_1\PROJECT_4 _REG\UT_TRIE\UT_TRIE\UT_TRIE_08_INSERT.CPP|C:\USERS\JOSHUA WRIGHT\SCHOOL\COMPUTER PROGRAMMER ANALYST\S4\PATTERNS_IN_SOFTWARE_1\PROJECT_4 _REG\UT_TRIE\UT_TRIE\UT_TRIE_10_INSERT_RVALUE.CPP|C:\USERS\JOSHUA WRIGHT\SCHOOL\COMPUTER PROGRAMMER ANALYST\S4\PATTERNS_IN_SOFTWARE_1\PROJECT_4 _REG\UT_TRIE\UT_TRIE\UT_TRIE_11_INSERT_RANGE.CPP|C:\USERS\JOSHUA WRIGHT\SCHOOL\COMPUTER PROGRAMMER ANALYST\S4\PATTERNS_IN_SOFTWARE_1\PROJECT_4 _REG\UT_TRIE\UT_TRIE\UT_TRIE_12_INSERT_INITIALIZER_LIST.CPP
C:\USERS\JOSHUA WRIGHT\SCHOOL\COMPUTER PROGRAMMER ANALYST\S4\PATTERNS_IN_SOFTWARE_1\PROJECT_4 _REG\UT_TRIE\UT_TRIE\X64\DEBUG\VC141.PDB
C:\USERS\JOSHUA WRIGHT\SCHOOL\COMPUTER PROGRAMMER ANALYST\S4\PATTERNS_IN_SOFTWARE_1\PROJECT_4 _REG\UT_TRIE\UT_TRIE\X64\DEBUG\VC141.IDB
C:\USERS\JOSHUA WRIGHT\SCHOOL\COMPUTER PROGRAMMER ANALYST\S4\PATTERNS_IN_SOFTWARE_1\PROJECT_4 _REG\UT_TRIE\UT_TRIE\X64\DEBUG\UT_TRIE_00_MAIN.OBJ
C:\USERS\JOSHUA WRIGHT\SCHOOL\COMPUTER PROGRAMMER ANALYST\S4\PATTERNS_IN_SOFTWARE_1\PROJECT_4 _REG\UT_TRIE\UT_TRIE\X64\DEBUG\UT_TRIE_08_INSERT.OBJ
C:\USERS\JOSHUA WRIGHT\SCHOOL\COMPUTER PROGRAMMER ANALYST\S4\PATTERNS_IN_SOFTWARE_1\PROJECT_4 _REG\UT_TRIE\UT_TRIE\X64\DEBUG\UT_TRIE_10_INSERT_RVALUE.OBJ
C:\USERS\JOSHUA WRIGHT\SCHOOL\COMPUTER PROGRAMMER ANALYST\S4\PATTERNS_IN_SOFTWARE_1\PROJECT_4 _REG\UT_TRIE\UT_TRIE\X64\DEBUG\UT_TRIE_11_INSERT_RANGE.OBJ
C:\USERS\JOSHUA WRIGHT\SCHOOL\COMPUTER PROGRAMMER ANALYST\S4\PATTERNS_IN_SOFTWARE_1\PROJECT_4 _REG\UT_TRIE\UT_TRIE\X64\DEBUG\UT_TRIE_12_INSERT_INITIALIZER_LIST.OBJ
^C:\USERS\JOSHUA WRIGHT\SCHOOL\COMPUTER PROGRAMMER ANALYST\S4\PATTERNS_IN_SOFTWARE_1\PROJECT_4 _REG\UT_TRIE\UT_TRIE\UT_TRIE_12_INSERT_INITIALIZER_LIST.CPP
C:\USERS\JOSHUA WRIGHT\SCHOOL\COMPUTER PROGRAMMER ANALYST\S4\PATTERNS_IN_SOFTWARE_1\PROJECT_4 _REG\UT_TRIE\UT_TRIE\X64\DEBUG\VC141.PDB
^C:\USERS\JOSHUA WRIGHT\SCHOOL\COMPUTER PROGRAMMER ANALYST\S4\PATTERNS_IN_SOFTWARE_1\PROJECT_4 _REG\UT_TRIE\UT_TRIE\UT_TRIE_00_MAIN.CPP|C:\USERS\JOSHUA WRIGHT\SCHOOL\COMPUTER PROGRAMMER ANALYST\S4\PATTERNS_IN_SOFTWARE_1\PROJECT_4 _REG\UT_TRIE\UT_TRIE\UT_TRIE_08_INSERT.CPP|C:\USERS\JOSHUA WRIGHT\SCHOOL\COMPUTER PROGRAMMER ANALYST\S4\PATTERNS_IN_SOFTWARE_1\PROJECT_4 _REG\UT_TRIE\UT_TRIE\UT_TRIE_10_INSERT_RVALUE.CPP|C:\USERS\JOSHUA WRIGHT\SCHOOL\COMPUTER PROGRAMMER ANALYST\S4\PATTERNS_IN_SOFTWARE_1\PROJECT_4 _REG\UT_TRIE\UT_TRIE\UT_TRIE_11_INSERT_RANGE.CPP|C:\USERS\JOSHUA WRIGHT\SCHOOL\COMPUTER PROGRAMMER ANALYST\S4\PATTERNS_IN_SOFTWARE_1\PROJECT_4 _REG\UT_TRIE\UT_TRIE\UT_TRIE_12_INSERT_INITIALIZER_LIST.CPP|C:\USERS\JOSHUA WRIGHT\SCHOOL\COMPUTER PROGRAMMER ANALYST\S4\PATTERNS_IN_SOFTWARE_1\PROJECT_4 _REG\UT_TRIE\UT_TRIE\UT_TRIE_13_FIND.CPP
C:\USERS\JOSHUA WRIGHT\SCHOOL\COMPUTER PROGRAMMER ANALYST\S4\PATTERNS_IN_SOFTWARE_1\PROJECT_4 _REG\UT_TRIE\UT_TRIE\X64\DEBUG\VC141.PDB
C:\USERS\JOSHUA WRIGHT\SCHOOL\COMPUTER PROGRAMMER ANALYST\S4\PATTERNS_IN_SOFTWARE_1\PROJECT_4 _REG\UT_TRIE\UT_TRIE\X64\DEBUG\VC141.IDB
C:\USERS\JOSHUA WRIGHT\SCHOOL\COMPUTER PROGRAMMER ANALYST\S4\PATTERNS_IN_SOFTWARE_1\PROJECT_4 _REG\UT_TRIE\UT_TRIE\X64\DEBUG\UT_TRIE_00_MAIN.OBJ
C:\USERS\JOSHUA WRIGHT\SCHOOL\COMPUTER PROGRAMMER ANALYST\S4\PATTERNS_IN_SOFTWARE_1\PROJECT_4 _REG\UT_TRIE\UT_TRIE\X64\DEBUG\UT_TRIE_08_INSERT.OBJ
C:\USERS\JOSHUA WRIGHT\SCHOOL\COMPUTER PROGRAMMER ANALYST\S4\PATTERNS_IN_SOFTWARE_1\PROJECT_4 _REG\UT_TRIE\UT_TRIE\X64\DEBUG\UT_TRIE_10_INSERT_RVALUE.OBJ
C:\USERS\JOSHUA WRIGHT\SCHOOL\COMPUTER PROGRAMMER ANALYST\S4\PATTERNS_IN_SOFTWARE_1\PROJECT_4 _REG\UT_TRIE\UT_TRIE\X64\DEBUG\UT_TRIE_11_INSERT_RANGE.OBJ
C:\USERS\JOSHUA WRIGHT\SCHOOL\COMPUTER PROGRAMMER ANALYST\S4\PATTERNS_IN_SOFTWARE_1\PROJECT_4 _REG\UT_TRIE\UT_TRIE\X64\DEBUG\UT_TRIE_12_INSERT_INITIALIZER_LIST.OBJ
C:\USERS\JOSHUA WRIGHT\SCHOOL\COMPUTER PROGRAMMER ANALYST\S4\PATTERNS_IN_SOFTWARE_1\PROJECT_4 _REG\UT_TRIE\UT_TRIE\X64\DEBUG\UT_TRIE_13_FIND.OBJ
^C:\USERS\JOSHUA WRIGHT\SCHOOL\COMPUTER PROGRAMMER ANALYST\S4\PATTERNS_IN_SOFTWARE_1\PROJECT_4 _REG\UT_TRIE\UT_TRIE\UT_TRIE_13_FIND.CPP
C:\USERS\JOSHUA WRIGHT\SCHOOL\COMPUTER PROGRAMMER ANALYST\S4\PATTERNS_IN_SOFTWARE_1\PROJECT_4 _REG\UT_TRIE\UT_TRIE\X64\DEBUG\VC141.PDB
^C:\USERS\JOSHUA WRIGHT\SCHOOL\COMPUTER PROGRAMMER ANALYST\S4\PATTERNS_IN_SOFTWARE_1\PROJECT_4 _REG\UT_TRIE\UT_TRIE\UT_TRIE_00_MAIN.CPP|C:\USERS\JOSHUA WRIGHT\SCHOOL\COMPUTER PROGRAMMER ANALYST\S4\PATTERNS_IN_SOFTWARE_1\PROJECT_4 _REG\UT_TRIE\UT_TRIE\UT_TRIE_14_ERASE_RANGE.CPP
C:\USERS\JOSHUA WRIGHT\SCHOOL\COMPUTER PROGRAMMER ANALYST\S4\PATTERNS_IN_SOFTWARE_1\PROJECT_4 _REG\UT_TRIE\UT_TRIE\X64\DEBUG\VC141.PDB
C:\USERS\JOSHUA WRIGHT\SCHOOL\COMPUTER PROGRAMMER ANALYST\S4\PATTERNS_IN_SOFTWARE_1\PROJECT_4 _REG\UT_TRIE\UT_TRIE\X64\DEBUG\VC141.IDB
C:\USERS\JOSHUA WRIGHT\SCHOOL\COMPUTER PROGRAMMER ANALYST\S4\PATTERNS_IN_SOFTWARE_1\PROJECT_4 _REG\UT_TRIE\UT_TRIE\X64\DEBUG\UT_TRIE_00_MAIN.OBJ
C:\USERS\JOSHUA WRIGHT\SCHOOL\COMPUTER PROGRAMMER ANALYST\S4\PATTERNS_IN_SOFTWARE_1\PROJECT_4 _REG\UT_TRIE\UT_TRIE\X64\DEBUG\UT_TRIE_14_ERASE_RANGE.OBJ
^C:\USERS\JOSHUA WRIGHT\SCHOOL\COMPUTER PROGRAMMER ANALYST\S4\PATTERNS_IN_SOFTWARE_1\PROJECT_4 _REG\UT_TRIE\UT_TRIE\UT_TRIE_14_ERASE_RANGE.CPP
C:\USERS\JOSHUA WRIGHT\SCHOOL\COMPUTER PROGRAMMER ANALYST\S4\PATTERNS_IN_SOFTWARE_1\PROJECT_4 _REG\UT_TRIE\UT_TRIE\X64\DEBUG\VC141.PDB
^C:\USERS\JOSHUA WRIGHT\SCHOOL\COMPUTER PROGRAMMER ANALYST\S4\PATTERNS_IN_SOFTWARE_1\PROJECT_4 _REG\UT_TRIE\UT_TRIE\UT_TRIE_00_MAIN.CPP|C:\USERS\JOSHUA WRIGHT\SCHOOL\COMPUTER PROGRAMMER ANALYST\S4\PATTERNS_IN_SOFTWARE_1\PROJECT_4 _REG\UT_TRIE\UT_TRIE\UT_TRIE_14_ERASE_RANGE.CPP|C:\USERS\JOSHUA WRIGHT\SCHOOL\COMPUTER PROGRAMMER ANALYST\S4\PATTERNS_IN_SOFTWARE_1\PROJECT_4 _REG\UT_TRIE\UT_TRIE\UT_TRIE_15_ERASE_MASS.CPP|C:\USERS\JOSHUA WRIGHT\SCHOOL\COMPUTER PROGRAMMER ANALYST\S4\PATTERNS_IN_SOFTWARE_1\PROJECT_4 _REG\UT_TRIE\UT_TRIE\UT_TRIE_16_SWAP.CPP|C:\USERS\JOSHUA WRIGHT\SCHOOL\COMPUTER PROGRAMMER ANALYST\S4\PATTERNS_IN_SOFTWARE_1\PROJECT_4 _REG\UT_TRIE\UT_TRIE\UT_TRIE_17_CTOR_COPY.CPP
C:\USERS\JOSHUA WRIGHT\SCHOOL\COMPUTER PROGRAMMER ANALYST\S4\PATTERNS_IN_SOFTWARE_1\PROJECT_4 _REG\UT_TRIE\UT_TRIE\X64\DEBUG\VC141.PDB
C:\USERS\JOSHUA WRIGHT\SCHOOL\COMPUTER PROGRAMMER ANALYST\S4\PATTERNS_IN_SOFTWARE_1\PROJECT_4 _REG\UT_TRIE\UT_TRIE\X64\DEBUG\VC141.IDB
C:\USERS\JOSHUA WRIGHT\SCHOOL\COMPUTER PROGRAMMER ANALYST\S4\PATTERNS_IN_SOFTWARE_1\PROJECT_4 _REG\UT_TRIE\UT_TRIE\X64\DEBUG\UT_TRIE_15_ERASE_MASS.OBJ
C:\USERS\JOSHUA WRIGHT\SCHOOL\COMPUTER PROGRAMMER ANALYST\S4\PATTERNS_IN_SOFTWARE_1\PROJECT_4 _REG\UT_TRIE\UT_TRIE\X64\DEBUG\UT_TRIE_16_SWAP.OBJ
C:\USERS\JOSHUA WRIGHT\SCHOOL\COMPUTER PROGRAMMER ANALYST\S4\PATTERNS_IN_SOFTWARE_1\PROJECT_4 _REG\UT_TRIE\UT_TRIE\X64\DEBUG\UT_TRIE_17_CTOR_COPY.OBJ
C:\USERS\JOSHUA WRIGHT\SCHOOL\COMPUTER PROGRAMMER ANALYST\S4\PATTERNS_IN_SOFTWARE_1\PROJECT_4 _REG\UT_TRIE\UT_TRIE\X64\DEBUG\UT_TRIE_00_MAIN.OBJ
C:\USERS\JOSHUA WRIGHT\SCHOOL\COMPUTER PROGRAMMER ANALYST\S4\PATTERNS_IN_SOFTWARE_1\PROJECT_4 _REG\UT_TRIE\UT_TRIE\X64\DEBUG\UT_TRIE_14_ERASE_RANGE.OBJ
^C:\USERS\JOSHUA WRIGHT\SCHOOL\COMPUTER PROGRAMMER ANALYST\S4\PATTERNS_IN_SOFTWARE_1\PROJECT_4 _REG\UT_TRIE\UT_TRIE\UT_TRIE_15_ERASE_MASS.CPP
C:\USERS\JOSHUA WRIGHT\SCHOOL\COMPUTER PROGRAMMER ANALYST\S4\PATTERNS_IN_SOFTWARE_1\PROJECT_4 _REG\UT_TRIE\UT_TRIE\X64\DEBUG\VC141.PDB
^C:\USERS\JOSHUA WRIGHT\SCHOOL\COMPUTER PROGRAMMER ANALYST\S4\PATTERNS_IN_SOFTWARE_1\PROJECT_4 _REG\UT_TRIE\UT_TRIE\UT_TRIE_16_SWAP.CPP
C:\USERS\JOSHUA WRIGHT\SCHOOL\COMPUTER PROGRAMMER ANALYST\S4\PATTERNS_IN_SOFTWARE_1\PROJECT_4 _REG\UT_TRIE\UT_TRIE\X64\DEBUG\VC141.PDB
^C:\USERS\JOSHUA WRIGHT\SCHOOL\COMPUTER PROGRAMMER ANALYST\S4\PATTERNS_IN_SOFTWARE_1\PROJECT_4 _REG\UT_TRIE\UT_TRIE\UT_TRIE_17_CTOR_COPY.CPP
C:\USERS\JOSHUA WRIGHT\SCHOOL\COMPUTER PROGRAMMER ANALYST\S4\PATTERNS_IN_SOFTWARE_1\PROJECT_4 _REG\UT_TRIE\UT_TRIE\X64\DEBUG\VC141.PDB
^C:\USERS\JOSHUA WRIGHT\SCHOOL\COMPUTER PROGRAMMER ANALYST\S4\PATTERNS_IN_SOFTWARE_1\PROJECT_4 _REG\UT_TRIE\UT_TRIE\UT_TRIE_00_MAIN.CPP|C:\USERS\JOSHUA WRIGHT\SCHOOL\COMPUTER PROGRAMMER ANALYST\S4\PATTERNS_IN_SOFTWARE_1\PROJECT_4 _REG\UT_TRIE\UT_TRIE\UT_TRIE_14_ERASE_RANGE.CPP|C:\USERS\JOSHUA WRIGHT\SCHOOL\COMPUTER PROGRAMMER ANALYST\S4\PATTERNS_IN_SOFTWARE_1\PROJECT_4 _REG\UT_TRIE\UT_TRIE\UT_TRIE_15_ERASE_MASS.CPP|C:\USERS\JOSHUA WRIGHT\SCHOOL\COMPUTER PROGRAMMER ANALYST\S4\PATTERNS_IN_SOFTWARE_1\PROJECT_4 _REG\UT_TRIE\UT_TRIE\UT_TRIE_16_SWAP.CPP|C:\USERS\JOSHUA WRIGHT\SCHOOL\COMPUTER PROGRAMMER ANALYST\S4\PATTERNS_IN_SOFTWARE_1\PROJECT_4 _REG\UT_TRIE\UT_TRIE\UT_TRIE_18_CTOR_RVALUE.CPP
C:\USERS\JOSHUA WRIGHT\SCHOOL\COMPUTER PROGRAMMER ANALYST\S4\PATTERNS_IN_SOFTWARE_1\PROJECT_4 _REG\UT_TRIE\UT_TRIE\X64\DEBUG\VC141.PDB
C:\USERS\JOSHUA WRIGHT\SCHOOL\COMPUTER PROGRAMMER ANALYST\S4\PATTERNS_IN_SOFTWARE_1\PROJECT_4 _REG\UT_TRIE\UT_TRIE\X64\DEBUG\VC141.IDB
C:\USERS\JOSHUA WRIGHT\SCHOOL\COMPUTER PROGRAMMER ANALYST\S4\PATTERNS_IN_SOFTWARE_1\PROJECT_4 _REG\UT_TRIE\UT_TRIE\X64\DEBUG\UT_TRIE_00_MAIN.OBJ
C:\USERS\JOSHUA WRIGHT\SCHOOL\COMPUTER PROGRAMMER ANALYST\S4\PATTERNS_IN_SOFTWARE_1\PROJECT_4 _REG\UT_TRIE\UT_TRIE\X64\DEBUG\UT_TRIE_14_ERASE_RANGE.OBJ
C:\USERS\JOSHUA WRIGHT\SCHOOL\COMPUTER PROGRAMMER ANALYST\S4\PATTERNS_IN_SOFTWARE_1\PROJECT_4 _REG\UT_TRIE\UT_TRIE\X64\DEBUG\UT_TRIE_15_ERASE_MASS.OBJ
C:\USERS\JOSHUA WRIGHT\SCHOOL\COMPUTER PROGRAMMER ANALYST\S4\PATTERNS_IN_SOFTWARE_1\PROJECT_4 _REG\UT_TRIE\UT_TRIE\X64\DEBUG\UT_TRIE_16_SWAP.OBJ
C:\USERS\JOSHUA WRIGHT\SCHOOL\COMPUTER PROGRAMMER ANALYST\S4\PATTERNS_IN_SOFTWARE_1\PROJECT_4 _REG\UT_TRIE\UT_TRIE\X64\DEBUG\UT_TRIE_18_CTOR_RVALUE.OBJ
^C:\USERS\JOSHUA WRIGHT\SCHOOL\COMPUTER PROGRAMMER ANALYST\S4\PATTERNS_IN_SOFTWARE_1\PROJECT_4 _REG\UT_TRIE\UT_TRIE\UT_TRIE_18_CTOR_RVALUE.CPP
C:\USERS\JOSHUA WRIGHT\SCHOOL\COMPUTER PROGRAMMER ANALYST\S4\PATTERNS_IN_SOFTWARE_1\PROJECT_4 _REG\UT_TRIE\UT_TRIE\X64\DEBUG\VC141.PDB
^C:\USERS\JOSHUA WRIGHT\SCHOOL\COMPUTER PROGRAMMER ANALYST\S4\PATTERNS_IN_SOFTWARE_1\PROJECT_4 _REG\UT_TRIE\UT_TRIE\UT_TRIE_00_MAIN.CPP|C:\USERS\JOSHUA WRIGHT\SCHOOL\COMPUTER PROGRAMMER ANALYST\S4\PATTERNS_IN_SOFTWARE_1\PROJECT_4 _REG\UT_TRIE\UT_TRIE\UT_TRIE_14_ERASE_RANGE.CPP|C:\USERS\JOSHUA WRIGHT\SCHOOL\COMPUTER PROGRAMMER ANALYST\S4\PATTERNS_IN_SOFTWARE_1\PROJECT_4 _REG\UT_TRIE\UT_TRIE\UT_TRIE_15_ERASE_MASS.CPP|C:\USERS\JOSHUA WRIGHT\SCHOOL\COMPUTER PROGRAMMER ANALYST\S4\PATTERNS_IN_SOFTWARE_1\PROJECT_4 _REG\UT_TRIE\UT_TRIE\UT_TRIE_16_SWAP.CPP|C:\USERS\JOSHUA WRIGHT\SCHOOL\COMPUTER PROGRAMMER ANALYST\S4\PATTERNS_IN_SOFTWARE_1\PROJECT_4 _REG\UT_TRIE\UT_TRIE\UT_TRIE_17_CTOR_COPY.CPP|C:\USERS\JOSHUA WRIGHT\SCHOOL\COMPUTER PROGRAMMER ANALYST\S4\PATTERNS_IN_SOFTWARE_1\PROJECT_4 _REG\UT_TRIE\UT_TRIE\UT_TRIE_18_CTOR_RVALUE.CPP|C:\USERS\JOSHUA WRIGHT\SCHOOL\COMPUTER PROGRAMMER ANALYST\S4\PATTERNS_IN_SOFTWARE_1\PROJECT_4 _REG\UT_TRIE\UT_TRIE\UT_TRIE_19_CTOR_ITERATOR.CPP
C:\USERS\JOSHUA WRIGHT\SCHOOL\COMPUTER PROGRAMMER ANALYST\S4\PATTERNS_IN_SOFTWARE_1\PROJECT_4 _REG\UT_TRIE\UT_TRIE\X64\DEBUG\VC141.PDB
C:\USERS\JOSHUA WRIGHT\SCHOOL\COMPUTER PROGRAMMER ANALYST\S4\PATTERNS_IN_SOFTWARE_1\PROJECT_4 _REG\UT_TRIE\UT_TRIE\X64\DEBUG\VC141.IDB
C:\USERS\JOSHUA WRIGHT\SCHOOL\COMPUTER PROGRAMMER ANALYST\S4\PATTERNS_IN_SOFTWARE_1\PROJECT_4 _REG\UT_TRIE\UT_TRIE\X64\DEBUG\UT_TRIE_19_CTOR_ITERATOR.OBJ
C:\USERS\JOSHUA WRIGHT\SCHOOL\COMPUTER PROGRAMMER ANALYST\S4\PATTERNS_IN_SOFTWARE_1\PROJECT_4 _REG\UT_TRIE\UT_TRIE\X64\DEBUG\UT_TRIE_00_MAIN.OBJ
C:\USERS\JOSHUA WRIGHT\SCHOOL\COMPUTER PROGRAMMER ANALYST\S4\PATTERNS_IN_SOFTWARE_1\PROJECT_4 _REG\UT_TRIE\UT_TRIE\X64\DEBUG\UT_TRIE_14_ERASE_RANGE.OBJ
C:\USERS\JOSHUA WRIGHT\SCHOOL\COMPUTER PROGRAMMER ANALYST\S4\PATTERNS_IN_SOFTWARE_1\PROJECT_4 _REG\UT_TRIE\UT_TRIE\X64\DEBUG\UT_TRIE_15_ERASE_MASS.OBJ
C:\USERS\JOSHUA WRIGHT\SCHOOL\COMPUTER PROGRAMMER ANALYST\S4\PATTERNS_IN_SOFTWARE_1\PROJECT_4 _REG\UT_TRIE\UT_TRIE\X64\DEBUG\UT_TRIE_16_SWAP.OBJ
C:\USERS\JOSHUA WRIGHT\SCHOOL\COMPUTER PROGRAMMER ANALYST\S4\PATTERNS_IN_SOFTWARE_1\PROJECT_4 _REG\UT_TRIE\UT_TRIE\X64\DEBUG\UT_TRIE_18_CTOR_RVALUE.OBJ
C:\USERS\JOSHUA WRIGHT\SCHOOL\COMPUTER PROGRAMMER ANALYST\S4\PATTERNS_IN_SOFTWARE_1\PROJECT_4 _REG\UT_TRIE\UT_TRIE\X64\DEBUG\UT_TRIE_17_CTOR_COPY.OBJ
^C:\USERS\JOSHUA WRIGHT\SCHOOL\COMPUTER PROGRAMMER ANALYST\S4\PATTERNS_IN_SOFTWARE_1\PROJECT_4 _REG\UT_TRIE\UT_TRIE\UT_TRIE_19_CTOR_ITERATOR.CPP
C:\USERS\JOSHUA WRIGHT\SCHOOL\COMPUTER PROGRAMMER ANALYST\S4\PATTERNS_IN_SOFTWARE_1\PROJECT_4 _REG\UT_TRIE\UT_TRIE\X64\DEBUG\VC141.PDB
^C:\USERS\JOSHUA WRIGHT\SCHOOL\COMPUTER PROGRAMMER ANALYST\S4\PATTERNS_IN_SOFTWARE_1\PROJECT_4 _REG\UT_TRIE\UT_TRIE\UT_TRIE_00_MAIN.CPP|C:\USERS\JOSHUA WRIGHT\SCHOOL\COMPUTER PROGRAMMER ANALYST\S4\PATTERNS_IN_SOFTWARE_1\PROJECT_4 _REG\UT_TRIE\UT_TRIE\UT_TRIE_14_ERASE_RANGE.CPP|C:\USERS\JOSHUA WRIGHT\SCHOOL\COMPUTER PROGRAMMER ANALYST\S4\PATTERNS_IN_SOFTWARE_1\PROJECT_4 _REG\UT_TRIE\UT_TRIE\UT_TRIE_15_ERASE_MASS.CPP|C:\USERS\JOSHUA WRIGHT\SCHOOL\COMPUTER PROGRAMMER ANALYST\S4\PATTERNS_IN_SOFTWARE_1\PROJECT_4 _REG\UT_TRIE\UT_TRIE\UT_TRIE_16_SWAP.CPP|C:\USERS\JOSHUA WRIGHT\SCHOOL\COMPUTER PROGRAMMER ANALYST\S4\PATTERNS_IN_SOFTWARE_1\PROJECT_4 _REG\UT_TRIE\UT_TRIE\UT_TRIE_17_CTOR_COPY.CPP|C:\USERS\JOSHUA WRIGHT\SCHOOL\COMPUTER PROGRAMMER ANALYST\S4\PATTERNS_IN_SOFTWARE_1\PROJECT_4 _REG\UT_TRIE\UT_TRIE\UT_TRIE_18_CTOR_RVALUE.CPP|C:\USERS\JOSHUA WRIGHT\SCHOOL\COMPUTER PROGRAMMER ANALYST\S4\PATTERNS_IN_SOFTWARE_1\PROJECT_4 _REG\UT_TRIE\UT_TRIE\UT_TRIE_19_CTOR_ITERATOR.CPP|C:\USERS\JOSHUA WRIGHT\SCHOOL\COMPUTER PROGRAMMER ANALYST\S4\PATTERNS_IN_SOFTWARE_1\PROJECT_4 _REG\UT_TRIE\UT_TRIE\UT_TRIE_20_CTOR_INITIALIZER.CPP
C:\USERS\JOSHUA WRIGHT\SCHOOL\COMPUTER PROGRAMMER ANALYST\S4\PATTERNS_IN_SOFTWARE_1\PROJECT_4 _REG\UT_TRIE\UT_TRIE\X64\DEBUG\VC141.PDB
C:\USERS\JOSHUA WRIGHT\SCHOOL\COMPUTER PROGRAMMER ANALYST\S4\PATTERNS_IN_SOFTWARE_1\PROJECT_4 _REG\UT_TRIE\UT_TRIE\X64\DEBUG\VC141.IDB
C:\USERS\JOSHUA WRIGHT\SCHOOL\COMPUTER PROGRAMMER ANALYST\S4\PATTERNS_IN_SOFTWARE_1\PROJECT_4 _REG\UT_TRIE\UT_TRIE\X64\DEBUG\UT_TRIE_20_CTOR_INITIALIZER.OBJ
C:\USERS\JOSHUA WRIGHT\SCHOOL\COMPUTER PROGRAMMER ANALYST\S4\PATTERNS_IN_SOFTWARE_1\PROJECT_4 _REG\UT_TRIE\UT_TRIE\X64\DEBUG\UT_TRIE_00_MAIN.OBJ
C:\USERS\JOSHUA WRIGHT\SCHOOL\COMPUTER PROGRAMMER ANALYST\S4\PATTERNS_IN_SOFTWARE_1\PROJECT_4 _REG\UT_TRIE\UT_TRIE\X64\DEBUG\UT_TRIE_14_ERASE_RANGE.OBJ
C:\USERS\JOSHUA WRIGHT\SCHOOL\COMPUTER PROGRAMMER ANALYST\S4\PATTERNS_IN_SOFTWARE_1\PROJECT_4 _REG\UT_TRIE\UT_TRIE\X64\DEBUG\UT_TRIE_15_ERASE_MASS.OBJ
C:\USERS\JOSHUA WRIGHT\SCHOOL\COMPUTER PROGRAMMER ANALYST\S4\PATTERNS_IN_SOFTWARE_1\PROJECT_4 _REG\UT_TRIE\UT_TRIE\X64\DEBUG\UT_TRIE_16_SWAP.OBJ
C:\USERS\JOSHUA WRIGHT\SCHOOL\COMPUTER PROGRAMMER ANALYST\S4\PATTERNS_IN_SOFTWARE_1\PROJECT_4 _REG\UT_TRIE\UT_TRIE\X64\DEBUG\UT_TRIE_17_CTOR_COPY.OBJ
C:\USERS\JOSHUA WRIGHT\SCHOOL\COMPUTER PROGRAMMER ANALYST\S4\PATTERNS_IN_SOFTWARE_1\PROJECT_4 _REG\UT_TRIE\UT_TRIE\X64\DEBUG\UT_TRIE_18_CTOR_RVALUE.OBJ
C:\USERS\JOSHUA WRIGHT\SCHOOL\COMPUTER PROGRAMMER ANALYST\S4\PATTERNS_IN_SOFTWARE_1\PROJECT_4 _REG\UT_TRIE\UT_TRIE\X64\DEBUG\UT_TRIE_19_CTOR_ITERATOR.OBJ
^C:\USERS\JOSHUA WRIGHT\SCHOOL\COMPUTER PROGRAMMER ANALYST\S4\PATTERNS_IN_SOFTWARE_1\PROJECT_4 _REG\UT_TRIE\UT_TRIE\UT_TRIE_20_CTOR_INITIALIZER.CPP
C:\USERS\JOSHUA WRIGHT\SCHOOL\COMPUTER PROGRAMMER ANALYST\S4\PATTERNS_IN_SOFTWARE_1\PROJECT_4 _REG\UT_TRIE\UT_TRIE\X64\DEBUG\VC141.PDB
^C:\USERS\JOSHUA WRIGHT\SCHOOL\COMPUTER PROGRAMMER ANALYST\S4\PATTERNS_IN_SOFTWARE_1\PROJECT_4 _REG\UT_TRIE\UT_TRIE\UT_TRIE_00_MAIN.CPP|C:\USERS\JOSHUA WRIGHT\SCHOOL\COMPUTER PROGRAMMER ANALYST\S4\PATTERNS_IN_SOFTWARE_1\PROJECT_4 _REG\UT_TRIE\UT_TRIE\UT_TRIE_14_ERASE_RANGE.CPP|C:\USERS\JOSHUA WRIGHT\SCHOOL\COMPUTER PROGRAMMER ANALYST\S4\PATTERNS_IN_SOFTWARE_1\PROJECT_4 _REG\UT_TRIE\UT_TRIE\UT_TRIE_15_ERASE_MASS.CPP|C:\USERS\JOSHUA WRIGHT\SCHOOL\COMPUTER PROGRAMMER ANALYST\S4\PATTERNS_IN_SOFTWARE_1\PROJECT_4 _REG\UT_TRIE\UT_TRIE\UT_TRIE_16_SWAP.CPP|C:\USERS\JOSHUA WRIGHT\SCHOOL\COMPUTER PROGRAMMER ANALYST\S4\PATTERNS_IN_SOFTWARE_1\PROJECT_4 _REG\UT_TRIE\UT_TRIE\UT_TRIE_17_CTOR_COPY.CPP|C:\USERS\JOSHUA WRIGHT\SCHOOL\COMPUTER PROGRAMMER ANALYST\S4\PATTERNS_IN_SOFTWARE_1\PROJECT_4 _REG\UT_TRIE\UT_TRIE\UT_TRIE_18_CTOR_RVALUE.CPP|C:\USERS\JOSHUA WRIGHT\SCHOOL\COMPUTER PROGRAMMER ANALYST\S4\PATTERNS_IN_SOFTWARE_1\PROJECT_4 _REG\UT_TRIE\UT_TRIE\UT_TRIE_19_CTOR_ITERATOR.CPP|C:\USERS\JOSHUA WRIGHT\SCHOOL\COMPUTER PROGRAMMER ANALYST\S4\PATTERNS_IN_SOFTWARE_1\PROJECT_4 _REG\UT_TRIE\UT_TRIE\UT_TRIE_20_CTOR_INITIALIZER.CPP|C:\USERS\JOSHUA WRIGHT\SCHOOL\COMPUTER PROGRAMMER ANALYST\S4\PATTERNS_IN_SOFTWARE_1\PROJECT_4 _REG\UT_TRIE\UT_TRIE\UT_TRIE_21_DEEP_COPY_ASSIGNMENT.CPP|C:\USERS\JOSHUA WRIGHT\SCHOOL\COMPUTER PROGRAMMER ANALYST\S4\PATTERNS_IN_SOFTWARE_1\PROJECT_4 _REG\UT_TRIE\UT_TRIE\UT_TRIE_22_DEEP_MOVE_ASSIGNMENT.CPP
C:\USERS\JOSHUA WRIGHT\SCHOOL\COMPUTER PROGRAMMER ANALYST\S4\PATTERNS_IN_SOFTWARE_1\PROJECT_4 _REG\UT_TRIE\UT_TRIE\X64\DEBUG\VC141.PDB
C:\USERS\JOSHUA WRIGHT\SCHOOL\COMPUTER PROGRAMMER ANALYST\S4\PATTERNS_IN_SOFTWARE_1\PROJECT_4 _REG\UT_TRIE\UT_TRIE\X64\DEBUG\VC141.IDB
C:\USERS\JOSHUA WRIGHT\SCHOOL\COMPUTER PROGRAMMER ANALYST\S4\PATTERNS_IN_SOFTWARE_1\PROJECT_4 _REG\UT_TRIE\UT_TRIE\X64\DEBUG\UT_TRIE_22_DEEP_MOVE_ASSIGNMENT.OBJ
C:\USERS\JOSHUA WRIGHT\SCHOOL\COMPUTER PROGRAMMER ANALYST\S4\PATTERNS_IN_SOFTWARE_1\PROJECT_4 _REG\UT_TRIE\UT_TRIE\X64\DEBUG\UT_TRIE_00_MAIN.OBJ
C:\USERS\JOSHUA WRIGHT\SCHOOL\COMPUTER PROGRAMMER ANALYST\S4\PATTERNS_IN_SOFTWARE_1\PROJECT_4 _REG\UT_TRIE\UT_TRIE\X64\DEBUG\UT_TRIE_14_ERASE_RANGE.OBJ
C:\USERS\JOSHUA WRIGHT\SCHOOL\COMPUTER PROGRAMMER ANALYST\S4\PATTERNS_IN_SOFTWARE_1\PROJECT_4 _REG\UT_TRIE\UT_TRIE\X64\DEBUG\UT_TRIE_15_ERASE_MASS.OBJ
C:\USERS\JOSHUA WRIGHT\SCHOOL\COMPUTER PROGRAMMER ANALYST\S4\PATTERNS_IN_SOFTWARE_1\PROJECT_4 _REG\UT_TRIE\UT_TRIE\X64\DEBUG\UT_TRIE_16_SWAP.OBJ
C:\USERS\JOSHUA WRIGHT\SCHOOL\COMPUTER PROGRAMMER ANALYST\S4\PATTERNS_IN_SOFTWARE_1\PROJECT_4 _REG\UT_TRIE\UT_TRIE\X64\DEBUG\UT_TRIE_17_CTOR_COPY.OBJ
C:\USERS\JOSHUA WRIGHT\SCHOOL\COMPUTER PROGRAMMER ANALYST\S4\PATTERNS_IN_SOFTWARE_1\PROJECT_4 _REG\UT_TRIE\UT_TRIE\X64\DEBUG\UT_TRIE_18_CTOR_RVALUE.OBJ
C:\USERS\JOSHUA WRIGHT\SCHOOL\COMPUTER PROGRAMMER ANALYST\S4\PATTERNS_IN_SOFTWARE_1\PROJECT_4 _REG\UT_TRIE\UT_TRIE\X64\DEBUG\UT_TRIE_19_CTOR_ITERATOR.OBJ
C:\USERS\JOSHUA WRIGHT\SCHOOL\COMPUTER PROGRAMMER ANALYST\S4\PATTERNS_IN_SOFTWARE_1\PROJECT_4 _REG\UT_TRIE\UT_TRIE\X64\DEBUG\UT_TRIE_20_CTOR_INITIALIZER.OBJ
C:\USERS\JOSHUA WRIGHT\SCHOOL\COMPUTER PROGRAMMER ANALYST\S4\PATTERNS_IN_SOFTWARE_1\PROJECT_4 _REG\UT_TRIE\UT_TRIE\X64\DEBUG\UT_TRIE_21_DEEP_COPY_ASSIGNMENT.OBJ
^C:\USERS\JOSHUA WRIGHT\SCHOOL\COMPUTER PROGRAMMER ANALYST\S4\PATTERNS_IN_SOFTWARE_1\PROJECT_4 _REG\UT_TRIE\UT_TRIE\UT_TRIE_21_DEEP_COPY_ASSIGNMENT.CPP
C:\USERS\JOSHUA WRIGHT\SCHOOL\COMPUTER PROGRAMMER ANALYST\S4\PATTERNS_IN_SOFTWARE_1\PROJECT_4 _REG\UT_TRIE\UT_TRIE\X64\DEBUG\VC141.PDB
^C:\USERS\JOSHUA WRIGHT\SCHOOL\COMPUTER PROGRAMMER ANALYST\S4\PATTERNS_IN_SOFTWARE_1\PROJECT_4 _REG\UT_TRIE\UT_TRIE\UT_TRIE_22_DEEP_MOVE_ASSIGNMENT.CPP
C:\USERS\JOSHUA WRIGHT\SCHOOL\COMPUTER PROGRAMMER ANALYST\S4\PATTERNS_IN_SOFTWARE_1\PROJECT_4 _REG\UT_TRIE\UT_TRIE\X64\DEBUG\VC141.PDB
^C:\USERS\JOSHUA WRIGHT\SCHOOL\COMPUTER PROGRAMMER ANALYST\S4\PATTERNS_IN_SOFTWARE_1\PROJECT_4 _REG\UT_TRIE\UT_TRIE\UT_TRIE_00_MAIN.CPP|C:\USERS\JOSHUA WRIGHT\SCHOOL\COMPUTER PROGRAMMER ANALYST\S4\PATTERNS_IN_SOFTWARE_1\PROJECT_4 _REG\UT_TRIE\UT_TRIE\UT_TRIE_22_DEEP_MOVE_ASSIGNMENT.CPP
C:\USERS\JOSHUA WRIGHT\SCHOOL\COMPUTER PROGRAMMER ANALYST\S4\PATTERNS_IN_SOFTWARE_1\PROJECT_4 _REG\UT_TRIE\UT_TRIE\X64\DEBUG\VC141.PDB
C:\USERS\JOSHUA WRIGHT\SCHOOL\COMPUTER PROGRAMMER ANALYST\S4\PATTERNS_IN_SOFTWARE_1\PROJECT_4 _REG\UT_TRIE\UT_TRIE\X64\DEBUG\VC141.IDB
C:\USERS\JOSHUA WRIGHT\SCHOOL\COMPUTER PROGRAMMER ANALYST\S4\PATTERNS_IN_SOFTWARE_1\PROJECT_4 _REG\UT_TRIE\UT_TRIE\X64\DEBUG\UT_TRIE_00_MAIN.OBJ
C:\USERS\JOSHUA WRIGHT\SCHOOL\COMPUTER PROGRAMMER ANALYST\S4\PATTERNS_IN_SOFTWARE_1\PROJECT_4 _REG\UT_TRIE\UT_TRIE\X64\DEBUG\UT_TRIE_22_DEEP_MOVE_ASSIGNMENT.OBJ
^C:\USERS\JOSHUA WRIGHT\SCHOOL\COMPUTER PROGRAMMER ANALYST\S4\PATTERNS_IN_SOFTWARE_1\PROJECT_4 _REG\UT_TRIE\UT_TRIE\UT_TRIE_00_MAIN.CPP|C:\USERS\JOSHUA WRIGHT\SCHOOL\COMPUTER PROGRAMMER ANALYST\S4\PATTERNS_IN_SOFTWARE_1\PROJECT_4 _REG\UT_TRIE\UT_TRIE\UT_TRIE_23_INITIALIZER_ASSIGNMENT.CPP
C:\USERS\JOSHUA WRIGHT\SCHOOL\COMPUTER PROGRAMMER ANALYST\S4\PATTERNS_IN_SOFTWARE_1\PROJECT_4 _REG\UT_TRIE\UT_TRIE\X64\DEBUG\VC141.PDB
C:\USERS\JOSHUA WRIGHT\SCHOOL\COMPUTER PROGRAMMER ANALYST\S4\PATTERNS_IN_SOFTWARE_1\PROJECT_4 _REG\UT_TRIE\UT_TRIE\X64\DEBUG\VC141.IDB
C:\USERS\JOSHUA WRIGHT\SCHOOL\COMPUTER PROGRAMMER ANALYST\S4\PATTERNS_IN_SOFTWARE_1\PROJECT_4 _REG\UT_TRIE\UT_TRIE\X64\DEBUG\UT_TRIE_00_MAIN.OBJ
C:\USERS\JOSHUA WRIGHT\SCHOOL\COMPUTER PROGRAMMER ANALYST\S4\PATTERNS_IN_SOFTWARE_1\PROJECT_4 _REG\UT_TRIE\UT_TRIE\X64\DEBUG\UT_TRIE_23_INITIALIZER_ASSIGNMENT.OBJ
^C:\USERS\JOSHUA WRIGHT\SCHOOL\COMPUTER PROGRAMMER ANALYST\S4\PATTERNS_IN_SOFTWARE_1\PROJECT_4 _REG\UT_TRIE\UT_TRIE\UT_TRIE_23_INITIALIZER_ASSIGNMENT.CPP
C:\USERS\JOSHUA WRIGHT\SCHOOL\COMPUTER PROGRAMMER ANALYST\S4\PATTERNS_IN_SOFTWARE_1\PROJECT_4 _REG\UT_TRIE\UT_TRIE\X64\DEBUG\VC141.PDB
^C:\USERS\JOSHUA WRIGHT\SCHOOL\COMPUTER PROGRAMMER ANALYST\S4\PATTERNS_IN_SOFTWARE_1\PROJECT_4 _REG\UT_TRIE\UT_TRIE\UT_TRIE_00_MAIN.CPP|C:\USERS\JOSHUA WRIGHT\SCHOOL\COMPUTER PROGRAMMER ANALYST\S4\PATTERNS_IN_SOFTWARE_1\PROJECT_4 _REG\UT_TRIE\UT_TRIE\UT_TRIE_24_RELATIONAL.CPP
C:\USERS\JOSHUA WRIGHT\SCHOOL\COMPUTER PROGRAMMER ANALYST\S4\PATTERNS_IN_SOFTWARE_1\PROJECT_4 _REG\UT_TRIE\UT_TRIE\X64\DEBUG\VC141.PDB
C:\USERS\JOSHUA WRIGHT\SCHOOL\COMPUTER PROGRAMMER ANALYST\S4\PATTERNS_IN_SOFTWARE_1\PROJECT_4 _REG\UT_TRIE\UT_TRIE\X64\DEBUG\VC141.IDB
C:\USERS\JOSHUA WRIGHT\SCHOOL\COMPUTER PROGRAMMER ANALYST\S4\PATTERNS_IN_SOFTWARE_1\PROJECT_4 _REG\UT_TRIE\UT_TRIE\X64\DEBUG\UT_TRIE_00_MAIN.OBJ
C:\USERS\JOSHUA WRIGHT\SCHOOL\COMPUTER PROGRAMMER ANALYST\S4\PATTERNS_IN_SOFTWARE_1\PROJECT_4 _REG\UT_TRIE\UT_TRIE\X64\DEBUG\UT_TRIE_24_RELATIONAL.OBJ
^C:\USERS\JOSHUA WRIGHT\SCHOOL\COMPUTER PROGRAMMER ANALYST\S4\PATTERNS_IN_SOFTWARE_1\PROJECT_4 _REG\UT_TRIE\UT_TRIE\UT_TRIE_24_RELATIONAL.CPP
C:\USERS\JOSHUA WRIGHT\SCHOOL\COMPUTER PROGRAMMER ANALYST\S4\PATTERNS_IN_SOFTWARE_1\PROJECT_4 _REG\UT_TRIE\UT_TRIE\X64\DEBUG\VC141.PDB
